%YAML 1.1
%TAG !u! tag:unity3d.com,2011:
--- !u!1001 &5764346456975857698
PrefabInstance:
  m_ObjectHideFlags: 0
  serializedVersion: 2
  m_Modification:
    m_TransformParent: {fileID: 3091142808867426100}
    m_Modifications:
    - target: {fileID: -4216859302048453862, guid: 0d9fb37ff39343a42a7e4ba41f9e576a,
        type: 3}
      propertyPath: m_LocalPosition.x
      value: -0
      objectReference: {fileID: 0}
    - target: {fileID: -4216859302048453862, guid: 0d9fb37ff39343a42a7e4ba41f9e576a,
        type: 3}
      propertyPath: m_LocalPosition.y
      value: 0
      objectReference: {fileID: 0}
    - target: {fileID: -4216859302048453862, guid: 0d9fb37ff39343a42a7e4ba41f9e576a,
        type: 3}
      propertyPath: m_LocalPosition.z
      value: 0
      objectReference: {fileID: 0}
    - target: {fileID: -4216859302048453862, guid: 0d9fb37ff39343a42a7e4ba41f9e576a,
        type: 3}
      propertyPath: m_LocalRotation.x
      value: 0
      objectReference: {fileID: 0}
    - target: {fileID: -4216859302048453862, guid: 0d9fb37ff39343a42a7e4ba41f9e576a,
        type: 3}
      propertyPath: m_LocalRotation.y
      value: -0
      objectReference: {fileID: 0}
    - target: {fileID: -4216859302048453862, guid: 0d9fb37ff39343a42a7e4ba41f9e576a,
        type: 3}
      propertyPath: m_LocalRotation.z
      value: -0
      objectReference: {fileID: 0}
    - target: {fileID: -4216859302048453862, guid: 0d9fb37ff39343a42a7e4ba41f9e576a,
        type: 3}
      propertyPath: m_LocalRotation.w
      value: 1
      objectReference: {fileID: 0}
    - target: {fileID: -4216859302048453862, guid: 0d9fb37ff39343a42a7e4ba41f9e576a,
        type: 3}
      propertyPath: m_RootOrder
      value: 0
      objectReference: {fileID: 0}
    - target: {fileID: -4216859302048453862, guid: 0d9fb37ff39343a42a7e4ba41f9e576a,
        type: 3}
      propertyPath: m_LocalEulerAnglesHint.x
      value: 0
      objectReference: {fileID: 0}
    - target: {fileID: -4216859302048453862, guid: 0d9fb37ff39343a42a7e4ba41f9e576a,
        type: 3}
      propertyPath: m_LocalEulerAnglesHint.y
      value: 0
      objectReference: {fileID: 0}
    - target: {fileID: -4216859302048453862, guid: 0d9fb37ff39343a42a7e4ba41f9e576a,
        type: 3}
      propertyPath: m_LocalEulerAnglesHint.z
      value: 0
      objectReference: {fileID: 0}
    - target: {fileID: -927199367670048503, guid: 0d9fb37ff39343a42a7e4ba41f9e576a,
        type: 3}
      propertyPath: m_Name
      value: SM_Enemy_Satyr
      objectReference: {fileID: 0}
    m_RemovedComponents: []
  m_SourcePrefab: {fileID: 100100000, guid: 0d9fb37ff39343a42a7e4ba41f9e576a, type: 3}
--- !u!1001 &8578819770185835008
PrefabInstance:
  m_ObjectHideFlags: 0
  serializedVersion: 2
  m_Modification:
    m_TransformParent: {fileID: 0}
    m_Modifications:
    - target: {fileID: 4239577416110454414, guid: ccd042df27cc0a94fb51d5305f349ad3,
        type: 3}
      propertyPath: m_ReferencedEnemy
      value: enemy-aea6d86bd875d79140baae5bc06c60edbafac69502cedc5c66657441e744c46b
      objectReference: {fileID: 0}
    - target: {fileID: 6767754795799129396, guid: ccd042df27cc0a94fb51d5305f349ad3,
        type: 3}
      propertyPath: m_LocalPosition.x
      value: 0
      objectReference: {fileID: 0}
    - target: {fileID: 6767754795799129396, guid: ccd042df27cc0a94fb51d5305f349ad3,
        type: 3}
      propertyPath: m_LocalPosition.y
      value: 0
      objectReference: {fileID: 0}
    - target: {fileID: 6767754795799129396, guid: ccd042df27cc0a94fb51d5305f349ad3,
        type: 3}
      propertyPath: m_LocalPosition.z
      value: 0
      objectReference: {fileID: 0}
    - target: {fileID: 6767754795799129396, guid: ccd042df27cc0a94fb51d5305f349ad3,
        type: 3}
      propertyPath: m_LocalRotation.x
      value: 0
      objectReference: {fileID: 0}
    - target: {fileID: 6767754795799129396, guid: ccd042df27cc0a94fb51d5305f349ad3,
        type: 3}
      propertyPath: m_LocalRotation.y
      value: 0
      objectReference: {fileID: 0}
    - target: {fileID: 6767754795799129396, guid: ccd042df27cc0a94fb51d5305f349ad3,
        type: 3}
      propertyPath: m_LocalRotation.z
      value: 0
      objectReference: {fileID: 0}
    - target: {fileID: 6767754795799129396, guid: ccd042df27cc0a94fb51d5305f349ad3,
        type: 3}
      propertyPath: m_LocalRotation.w
      value: 1
      objectReference: {fileID: 0}
    - target: {fileID: 6767754795799129396, guid: ccd042df27cc0a94fb51d5305f349ad3,
        type: 3}
      propertyPath: m_RootOrder
      value: 0
      objectReference: {fileID: 0}
    - target: {fileID: 6767754795799129396, guid: ccd042df27cc0a94fb51d5305f349ad3,
        type: 3}
      propertyPath: m_LocalEulerAnglesHint.x
      value: 0
      objectReference: {fileID: 0}
    - target: {fileID: 6767754795799129396, guid: ccd042df27cc0a94fb51d5305f349ad3,
        type: 3}
      propertyPath: m_LocalEulerAnglesHint.y
      value: 0
      objectReference: {fileID: 0}
    - target: {fileID: 6767754795799129396, guid: ccd042df27cc0a94fb51d5305f349ad3,
        type: 3}
      propertyPath: m_LocalEulerAnglesHint.z
      value: 0
      objectReference: {fileID: 0}
    - target: {fileID: 6767754795799129397, guid: ccd042df27cc0a94fb51d5305f349ad3,
        type: 3}
      propertyPath: m_Name
      value: PREF_C_Enemy_SV3
      objectReference: {fileID: 0}
    m_RemovedComponents: []
  m_SourcePrefab: {fileID: 100100000, guid: ccd042df27cc0a94fb51d5305f349ad3, type: 3}
--- !u!4 &3091142808867426100 stripped
Transform:
  m_CorrespondingSourceObject: {fileID: 6767754795799129396, guid: ccd042df27cc0a94fb51d5305f349ad3,
    type: 3}
  m_PrefabInstance: {fileID: 8578819770185835008}
  m_PrefabAsset: {fileID: 0}
