%YAML 1.1
%TAG !u! tag:unity3d.com,2011:
--- !u!1001 &318133058221782043
PrefabInstance:
  m_ObjectHideFlags: 0
  serializedVersion: 2
  m_Modification:
    m_TransformParent: {fileID: 767669131608376816}
    m_Modifications:
    - target: {fileID: -4216859302048453862, guid: c86fcf7e9cfe10a478481aa99e411064,
        type: 3}
      propertyPath: m_LocalPosition.x
      value: -0
      objectReference: {fileID: 0}
    - target: {fileID: -4216859302048453862, guid: c86fcf7e9cfe10a478481aa99e411064,
        type: 3}
      propertyPath: m_LocalPosition.y
      value: 0
      objectReference: {fileID: 0}
    - target: {fileID: -4216859302048453862, guid: c86fcf7e9cfe10a478481aa99e411064,
        type: 3}
      propertyPath: m_LocalPosition.z
      value: 0
      objectReference: {fileID: 0}
    - target: {fileID: -4216859302048453862, guid: c86fcf7e9cfe10a478481aa99e411064,
        type: 3}
      propertyPath: m_LocalRotation.x
      value: 0
      objectReference: {fileID: 0}
    - target: {fileID: -4216859302048453862, guid: c86fcf7e9cfe10a478481aa99e411064,
        type: 3}
      propertyPath: m_LocalRotation.y
      value: -0
      objectReference: {fileID: 0}
    - target: {fileID: -4216859302048453862, guid: c86fcf7e9cfe10a478481aa99e411064,
        type: 3}
      propertyPath: m_LocalRotation.z
      value: -0
      objectReference: {fileID: 0}
    - target: {fileID: -4216859302048453862, guid: c86fcf7e9cfe10a478481aa99e411064,
        type: 3}
      propertyPath: m_LocalRotation.w
      value: 1
      objectReference: {fileID: 0}
    - target: {fileID: -4216859302048453862, guid: c86fcf7e9cfe10a478481aa99e411064,
        type: 3}
      propertyPath: m_RootOrder
      value: 0
      objectReference: {fileID: 0}
    - target: {fileID: -4216859302048453862, guid: c86fcf7e9cfe10a478481aa99e411064,
        type: 3}
      propertyPath: m_LocalEulerAnglesHint.x
      value: 0
      objectReference: {fileID: 0}
    - target: {fileID: -4216859302048453862, guid: c86fcf7e9cfe10a478481aa99e411064,
        type: 3}
      propertyPath: m_LocalEulerAnglesHint.y
      value: 0
      objectReference: {fileID: 0}
    - target: {fileID: -4216859302048453862, guid: c86fcf7e9cfe10a478481aa99e411064,
        type: 3}
      propertyPath: m_LocalEulerAnglesHint.z
      value: 0
      objectReference: {fileID: 0}
    - target: {fileID: -927199367670048503, guid: c86fcf7e9cfe10a478481aa99e411064,
        type: 3}
      propertyPath: m_Name
      value: SM_Enemy_Gorgon
      objectReference: {fileID: 0}
    m_RemovedComponents: []
  m_SourcePrefab: {fileID: 100100000, guid: c86fcf7e9cfe10a478481aa99e411064, type: 3}
--- !u!1001 &6290589847702825156
PrefabInstance:
  m_ObjectHideFlags: 0
  serializedVersion: 2
  m_Modification:
    m_TransformParent: {fileID: 0}
    m_Modifications:
    - target: {fileID: 1678691309396907739, guid: ccd042df27cc0a94fb51d5305f349ad3,
        type: 3}
      propertyPath: m_Radius
      value: 1
      objectReference: {fileID: 0}
    - target: {fileID: 1678691309396907739, guid: ccd042df27cc0a94fb51d5305f349ad3,
        type: 3}
      propertyPath: m_Height
      value: 2
      objectReference: {fileID: 0}
    - target: {fileID: 1678691309396907739, guid: ccd042df27cc0a94fb51d5305f349ad3,
        type: 3}
      propertyPath: m_Center.y
      value: 0
      objectReference: {fileID: 0}
    - target: {fileID: 4239577416110454414, guid: ccd042df27cc0a94fb51d5305f349ad3,
        type: 3}
      propertyPath: m_ReferencedEnemy
      value: enemy-1d501b7e049580d540c0e22c53d7ff54994ea27c5fa1862fab5a77f790ea0866
      objectReference: {fileID: 0}
    - target: {fileID: 6767754795799129396, guid: ccd042df27cc0a94fb51d5305f349ad3,
        type: 3}
      propertyPath: m_LocalPosition.x
      value: 0
      objectReference: {fileID: 0}
    - target: {fileID: 6767754795799129396, guid: ccd042df27cc0a94fb51d5305f349ad3,
        type: 3}
      propertyPath: m_LocalPosition.y
      value: 0
      objectReference: {fileID: 0}
    - target: {fileID: 6767754795799129396, guid: ccd042df27cc0a94fb51d5305f349ad3,
        type: 3}
      propertyPath: m_LocalPosition.z
      value: 0
      objectReference: {fileID: 0}
    - target: {fileID: 6767754795799129396, guid: ccd042df27cc0a94fb51d5305f349ad3,
        type: 3}
      propertyPath: m_LocalRotation.x
      value: 0
      objectReference: {fileID: 0}
    - target: {fileID: 6767754795799129396, guid: ccd042df27cc0a94fb51d5305f349ad3,
        type: 3}
      propertyPath: m_LocalRotation.y
      value: 0
      objectReference: {fileID: 0}
    - target: {fileID: 6767754795799129396, guid: ccd042df27cc0a94fb51d5305f349ad3,
        type: 3}
      propertyPath: m_LocalRotation.z
      value: 0
      objectReference: {fileID: 0}
    - target: {fileID: 6767754795799129396, guid: ccd042df27cc0a94fb51d5305f349ad3,
        type: 3}
      propertyPath: m_LocalRotation.w
      value: 1
      objectReference: {fileID: 0}
    - target: {fileID: 6767754795799129396, guid: ccd042df27cc0a94fb51d5305f349ad3,
        type: 3}
      propertyPath: m_RootOrder
      value: 0
      objectReference: {fileID: 0}
    - target: {fileID: 6767754795799129396, guid: ccd042df27cc0a94fb51d5305f349ad3,
        type: 3}
      propertyPath: m_LocalEulerAnglesHint.x
      value: 0
      objectReference: {fileID: 0}
    - target: {fileID: 6767754795799129396, guid: ccd042df27cc0a94fb51d5305f349ad3,
        type: 3}
      propertyPath: m_LocalEulerAnglesHint.y
      value: 0
      objectReference: {fileID: 0}
    - target: {fileID: 6767754795799129396, guid: ccd042df27cc0a94fb51d5305f349ad3,
        type: 3}
      propertyPath: m_LocalEulerAnglesHint.z
      value: 0
      objectReference: {fileID: 0}
    - target: {fileID: 6767754795799129397, guid: ccd042df27cc0a94fb51d5305f349ad3,
        type: 3}
      propertyPath: m_Name
      value: PREF_C_Enemy_GV3
      objectReference: {fileID: 0}
    m_RemovedComponents: []
  m_SourcePrefab: {fileID: 100100000, guid: ccd042df27cc0a94fb51d5305f349ad3, type: 3}
--- !u!4 &767669131608376816 stripped
Transform:
  m_CorrespondingSourceObject: {fileID: 6767754795799129396, guid: ccd042df27cc0a94fb51d5305f349ad3,
    type: 3}
  m_PrefabInstance: {fileID: 6290589847702825156}
  m_PrefabAsset: {fileID: 0}
