%YAML 1.1
%TAG !u! tag:unity3d.com,2011:
--- !u!114 &11400000
MonoBehaviour:
  m_ObjectHideFlags: 0
  m_CorrespondingSourceObject: {fileID: 0}
  m_PrefabInstance: {fileID: 0}
  m_PrefabAsset: {fileID: 0}
  m_GameObject: {fileID: 0}
  m_Enabled: 1
  m_EditorHideFlags: 0
  m_Script: {fileID: 11500000, guid: 523f7f76a64c8c44da673fcf4e9a55f5, type: 3}
  m_Name: SO_SI_3
  m_EditorClassIdentifier: 
  m_SerializedSentinel: <?xml version="1.0" encoding="utf-16"?><SerializedObject
    type="Kairos.Sentinels.SentinelInfo"><SentinelName type="System.String">BACCHUS'S
    KEEPSAKE</SentinelName><SentinelDescription type="System.String">Choose one timeframe.
    Increase by 5 the damage dealt by your attacks executed both in the selected
    timeframe and in the adiacent ones.</SentinelDescription><SentinelIcon type="TorkFramework.ResourceManagement.ResourceReference"><Path
    type="System.String">Assets/_External/tfc-assets/UI/Textures/Icons/Sentinels/T_UI_Icon_Sentinel_3.tga</Path></SentinelIcon><SentinelActionToken
    type="System.String">.</SentinelActionToken><Effect type="TorkFramework.ResourceManagement.ResourceReference"><Path
    type="System.String">Assets/_Project/ScriptableObjects/Sentinels/SentinelEffects/SO_SE_M_B_3.asset</Path></Effect><MaxActivations
    type="System.Int32">1</MaxActivations></SerializedObject>
