%YAML 1.1
%TAG !u! tag:unity3d.com,2011:
--- !u!114 &11400000
MonoBehaviour:
  m_ObjectHideFlags: 0
  m_CorrespondingSourceObject: {fileID: 0}
  m_PrefabInstance: {fileID: 0}
  m_PrefabAsset: {fileID: 0}
  m_GameObject: {fileID: 0}
  m_Enabled: 1
  m_EditorHideFlags: 0
  m_Script: {fileID: 11500000, guid: 1277f81014224d20907aa3c3b9f99d5d, type: 3}
  m_Name: SO_EG_2_M_1
  m_EditorClassIdentifier: 
  m_SerializedGroup: <?xml version="1.0" encoding="utf-16"?><SerializedObject type="Kairos.Progression.Encounters.EncounterGroup"><Tier
    type="System.Int32">2</Tier><Encounters type="Kairos.Progression.Encounters.Encounter[]"><Empty
    type="Kairos.Progression.Encounters.EnemyEncounter"><TargetEnemyPool type="Kairos.Enemies.EnemyPools.EnemyPoolReference"><PoolId
    type="System.String">enemypool-fb8421bba4b4beb6f4b26f52b798feb03b5dff822d4435f0b0589b7969841348</PoolId></TargetEnemyPool><RewardPool
    type="TorkFramework.ResourceManagement.ResourceReference"><Path type="System.String">Assets/_Project/ScriptableObjects/Progression/RewardPools/SO_RP_T2_LC.asset</Path></RewardPool><RewardCount
    type="System.Int32">3</RewardCount><SelectedRewards type="Kairos.Progression.Rewards.Reward[]"
    /><PreviewSprite type="TorkFramework.ResourceManagement.ResourceReference"><Path
    type="System.String">Assets/_External/tfc-assets/UI/Textures/Icons/Progression/T_UI_Icon_Progression_Combat_T1.png</Path></PreviewSprite><Cost
    type="System.Int32">2</Cost></Empty><Empty type="Kairos.Progression.Tree.TreeEncounter"><Question
    type="System.String">As you were climbing your way up, you found the remains
    of an adventurer; you could...</Question><Options type="Kairos.Progression.Tree.TreeOption[]"><Empty
    type="Kairos.Progression.Tree.TreeOption"><Text type="System.String">Spend some
    time to retrive it. (Spend 3 Time, Gain Rare Card "Opportunity")</Text><Effects
    type="Kairos.Progression.Tree.TreeEffect[]"><Empty type="Kairos.Progression.Tree.CardTreeEffect"><Reward
    type="Kairos.Progression.Rewards.CardReward"><TargetCard type="Kairos.Cards.CardReference"><Id
    type="System.String">card-c20511a0a3c081f05d8a51fc4b0e75b7212126068c4f35079a4ec22298cb201f</Id></TargetCard><Hero
    type="Kairos.Heroes.HeroReference"><Id type="System.String">.</Id></Hero><ShopCost
    type="System.Int32">0</ShopCost></Reward></Empty><Empty type="Kairos.Progression.Tree.TimeChangeTreeEffect"><TimeChange
    type="System.Int32">3</TimeChange></Empty></Effects></Empty><Empty type="Kairos.Progression.Tree.TreeOption"><Text
    type="System.String">Leave the remains to their lonely rest. (Nothing)</Text><Effects
    type="Kairos.Progression.Tree.TreeEffect[]"><Empty type="Kairos.Progression.Tree.TimeChangeTreeEffect"><TimeChange
    type="System.Int32">0</TimeChange></Empty></Effects></Empty></Options><PreviewSprite
    type="TorkFramework.ResourceManagement.ResourceReference"><Path type="System.String">Assets/_External/tfc-assets/UI/Textures/Icons/Progression/T_UI_Icon_Progression_Event.png</Path></PreviewSprite><Cost
    type="System.Int32">3</Cost></Empty><Empty type="Kairos.Progression.Encounters.EnemyEncounter"><TargetEnemyPool
    type="Kairos.Enemies.EnemyPools.EnemyPoolReference"><PoolId type="System.String">enemypool-cc7f4d16abe595ca72357467a6f3195789eaf51fcdd6a8d19edfe1b22ef7785e</PoolId></TargetEnemyPool><RewardPool
    type="TorkFramework.ResourceManagement.ResourceReference"><Path type="System.String">Assets/_Project/ScriptableObjects/Progression/RewardPools/SO_RP_T2_HC.asset</Path></RewardPool><RewardCount
    type="System.Int32">3</RewardCount><SelectedRewards type="Kairos.Progression.Rewards.Reward[]"
    /><PreviewSprite type="TorkFramework.ResourceManagement.ResourceReference"><Path
    type="System.String">Assets/_External/tfc-assets/UI/Textures/Icons/Progression/T_UI_Icon_Progression_Combat_T3.png</Path></PreviewSprite><Cost
    type="System.Int32">5</Cost></Empty></Encounters><IsLastGroup type="System.Boolean">0</IsLastGroup></SerializedObject>
