%YAML 1.1
%TAG !u! tag:unity3d.com,2011:
--- !u!114 &11400000
MonoBehaviour:
  m_ObjectHideFlags: 0
  m_CorrespondingSourceObject: {fileID: 0}
  m_PrefabInstance: {fileID: 0}
  m_PrefabAsset: {fileID: 0}
  m_GameObject: {fileID: 0}
  m_Enabled: 1
  m_EditorHideFlags: 0
  m_Script: {fileID: 11500000, guid: 3967f6d7f69c69a4ebc29dd0b58e698f, type: 3}
  m_Name: SO_RW_CRD_HR_C_C_2
  m_EditorClassIdentifier: 
  m_SerializedReward: <?xml version="1.0" encoding="utf-16"?><SerializedObject type="Kairos.Progression.Rewards.CardReward"><TargetCard
    type="Kairos.Cards.CardReference"><Id type="System.String">card-c9551f307d0ba7ddbec3ba1c9bc383ed83e4a763f268af883cdff430c7254c2c</Id></TargetCard><Hero
    type="Kairos.Heroes.HeroReference"><Id type="System.String">hero-035ba4aa0600c36ea1b37a86ccdd6cc126ee74eb0e8638848be1bec6f9ae4690</Id></Hero><ShopCost
    type="System.Int32">0</ShopCost></SerializedObject>
