%YAML 1.1
%TAG !u! tag:unity3d.com,2011:
--- !u!114 &11400000
MonoBehaviour:
  m_ObjectHideFlags: 0
  m_CorrespondingSourceObject: {fileID: 0}
  m_PrefabInstance: {fileID: 0}
  m_PrefabAsset: {fileID: 0}
  m_GameObject: {fileID: 0}
  m_Enabled: 1
  m_EditorHideFlags: 0
  m_Script: {fileID: 11500000, guid: 1277f81014224d20907aa3c3b9f99d5d, type: 3}
  m_Name: SO_EG_3_M_1
  m_EditorClassIdentifier: 
  m_SerializedGroup: <?xml version="1.0" encoding="utf-16"?><SerializedObject type="Kairos.Progression.Encounters.EncounterGroup"><Tier
    type="System.Int32">3</Tier><Encounters type="Kairos.Progression.Encounters.Encounter[]"><Empty
    type="Kairos.Progression.Encounters.EnemyEncounter"><TargetEnemyPool type="Kairos.Enemies.EnemyPools.EnemyPoolReference"><PoolId
    type="System.String">enemypool-a58c256fee34615dac6a5bcf9500330a485514fc1009bf21b4c43321e4db27c9</PoolId></TargetEnemyPool><RewardPool
    type="TorkFramework.ResourceManagement.ResourceReference"><Path type="System.String">Assets/_Project/ScriptableObjects/Progression/RewardPools/SO_RP_T3_LC.asset</Path></RewardPool><RewardCount
    type="System.Int32">3</RewardCount><SelectedRewards type="Kairos.Progression.Rewards.Reward[]"
    /><PreviewSprite type="TorkFramework.ResourceManagement.ResourceReference"><Path
    type="System.String">Assets/_External/tfc-assets/UI/Textures/Icons/Progression/T_UI_Icon_Progression_Combat_T1.png</Path></PreviewSprite><Cost
    type="System.Int32">2</Cost></Empty><Empty type="Kairos.Progression.Tree.TreeEncounter"><Question
    type="System.String">You have the strong sensation that this will be the last
    time you will be able to rest, after this there is no return.</Question><Options
    type="Kairos.Progression.Tree.TreeOption[]"><Empty type="Kairos.Progression.Tree.TreeOption"><Text
    type="System.String">Stop to rest and prepare yourself. (Heal 30 HP)</Text><Effects
    type="Kairos.Progression.Tree.TreeEffect[]"><Empty type="Kairos.Progression.Tree.HealthChangeTreeEffect"><HealthChange
    type="System.Int32">30</HealthChange></Empty></Effects></Empty><Empty type="Kairos.Progression.Tree.TreeOption"><Text
    type="System.String">Keep pushing on, your destiny awaits. (+3 Time)</Text><Effects
    type="Kairos.Progression.Tree.TreeEffect[]"><Empty type="Kairos.Progression.Tree.TimeChangeTreeEffect"><TimeChange
    type="System.Int32">3</TimeChange></Empty></Effects></Empty></Options><PreviewSprite
    type="TorkFramework.ResourceManagement.ResourceReference"><Path type="System.String">Assets/_External/tfc-assets/UI/Textures/Icons/Progression/T_UI_Icon_Progression_Event.png</Path></PreviewSprite><Cost
    type="System.Int32">3</Cost></Empty><Empty type="Kairos.Progression.Encounters.EnemyEncounter"><TargetEnemyPool
    type="Kairos.Enemies.EnemyPools.EnemyPoolReference"><PoolId type="System.String">enemypool-7e923d213c4b265ec61f4167231909dd51ab6e65bea5aa1946ed5a2d79f8bc0e</PoolId></TargetEnemyPool><RewardPool
    type="TorkFramework.ResourceManagement.ResourceReference"><Path type="System.String">Assets/_Project/ScriptableObjects/Progression/RewardPools/SO_RP_T3_HC.asset</Path></RewardPool><RewardCount
    type="System.Int32">1</RewardCount><SelectedRewards type="Kairos.Progression.Rewards.Reward[]"
    /><PreviewSprite type="TorkFramework.ResourceManagement.ResourceReference"><Path
    type="System.String">Assets/_External/tfc-assets/UI/Textures/Icons/Progression/T_UI_Icon_Progression_Combat_T3.png</Path></PreviewSprite><Cost
    type="System.Int32">5</Cost></Empty></Encounters><IsLastGroup type="System.Boolean">0</IsLastGroup></SerializedObject>
