%YAML 1.1
%TAG !u! tag:unity3d.com,2011:
--- !u!114 &11400000
MonoBehaviour:
  m_ObjectHideFlags: 0
  m_CorrespondingSourceObject: {fileID: 0}
  m_PrefabInstance: {fileID: 0}
  m_PrefabAsset: {fileID: 0}
  m_GameObject: {fileID: 0}
  m_Enabled: 1
  m_EditorHideFlags: 0
  m_Script: {fileID: 11500000, guid: 1277f81014224d20907aa3c3b9f99d5d, type: 3}
  m_Name: SO_EG_3_E_3
  m_EditorClassIdentifier: 
  m_SerializedGroup: <?xml version="1.0" encoding="utf-16"?><SerializedObject type="Kairos.Progression.Encounters.EncounterGroup"><Tier
    type="System.Int32">3</Tier><Encounters type="Kairos.Progression.Encounters.Encounter[]"><Empty
    type="Kairos.Progression.Encounters.EnemyEncounter"><TargetEnemyPool type="Kairos.Enemies.EnemyPools.EnemyPoolReference"><PoolId
    type="System.String">enemypool-5286a8b67142572afb3b9eea7c048cab179747819050452ceec0954b25eac266</PoolId></TargetEnemyPool><RewardPool
    type="TorkFramework.ResourceManagement.ResourceReference"><Path type="System.String">Assets/_Project/ScriptableObjects/Progression/RewardPools/SO_RP_T3_LC.asset</Path></RewardPool><RewardCount
    type="System.Int32">3</RewardCount><SelectedRewards type="Kairos.Progression.Rewards.Reward[]"
    /><PreviewSprite type="TorkFramework.ResourceManagement.ResourceReference"><Path
    type="System.String">Assets/_External/tfc-assets/UI/Textures/Icons/Progression/T_UI_Icon_Progression_Combat_T1.png</Path></PreviewSprite><Cost
    type="System.Int32">2</Cost></Empty><Empty type="Kairos.Progression.Encounters.EnemyEncounter"><TargetEnemyPool
    type="Kairos.Enemies.EnemyPools.EnemyPoolReference"><PoolId type="System.String">enemypool-f238687d240de5b3a53a89783d02f540be6d89700acb8c16bea3f9b990882419</PoolId></TargetEnemyPool><RewardPool
    type="TorkFramework.ResourceManagement.ResourceReference"><Path type="System.String">Assets/_Project/ScriptableObjects/Progression/RewardPools/SO_RP_T3_MC.asset</Path></RewardPool><RewardCount
    type="System.Int32">3</RewardCount><SelectedRewards type="Kairos.Progression.Rewards.Reward[]"
    /><PreviewSprite type="TorkFramework.ResourceManagement.ResourceReference"><Path
    type="System.String">Assets/_External/tfc-assets/UI/Textures/Icons/Progression/T_UI_Icon_Progression_Combat_T2.png</Path></PreviewSprite><Cost
    type="System.Int32">3</Cost></Empty><Empty type="Kairos.Progression.Encounters.EnemyEncounter"><TargetEnemyPool
    type="Kairos.Enemies.EnemyPools.EnemyPoolReference"><PoolId type="System.String">enemypool-ea1dfa9c0564de2b499cc6dd123993fb1634281fc0da2c8a0bcdc55f45d03540</PoolId></TargetEnemyPool><RewardPool
    type="TorkFramework.ResourceManagement.ResourceReference"><Path type="System.String">Assets/_Project/ScriptableObjects/Progression/RewardPools/SO_RP_T3_HC.asset</Path></RewardPool><RewardCount
    type="System.Int32">1</RewardCount><SelectedRewards type="Kairos.Progression.Rewards.Reward[]"
    /><PreviewSprite type="TorkFramework.ResourceManagement.ResourceReference"><Path
    type="System.String">Assets/_External/tfc-assets/UI/Textures/Icons/Progression/T_UI_Icon_Progression_Combat_T3.png</Path></PreviewSprite><Cost
    type="System.Int32">5</Cost></Empty></Encounters><IsLastGroup type="System.Boolean">0</IsLastGroup></SerializedObject>
