%YAML 1.1
%TAG !u! tag:unity3d.com,2011:
--- !u!114 &11400000
MonoBehaviour:
  m_ObjectHideFlags: 0
  m_CorrespondingSourceObject: {fileID: 0}
  m_PrefabInstance: {fileID: 0}
  m_PrefabAsset: {fileID: 0}
  m_GameObject: {fileID: 0}
  m_Enabled: 1
  m_EditorHideFlags: 0
  m_Script: {fileID: 11500000, guid: 73db07f7cac7ad24782cc64fb17c5257, type: 3}
  m_Name: GlobalEditorSettings
  m_EditorClassIdentifier: 
  CardPreview: {fileID: 4886210142760780298, guid: 0c42ec844335d4744a405a8272052dda,
    type: 3}
