%YAML 1.1
%TAG !u! tag:unity3d.com,2011:
--- !u!181963792 &2655988077585873504
Preset:
  m_ObjectHideFlags: 0
  m_CorrespondingSourceObject: {fileID: 0}
  m_PrefabInstance: {fileID: 0}
  m_PrefabAsset: {fileID: 0}
  m_Name: PS_SSSSettings_Default
  m_TargetType:
    m_NativeTypeID: 114
    m_ManagedTypePPtr: {fileID: 11500000, guid: b2686e09ec7aef44bad2843e4416f057,
      type: 3}
    m_ManagedTypeFallback: 
  m_Properties:
  - target: {fileID: 0}
    propertyPath: m_Enabled
    value: 1
    objectReference: {fileID: 0}
  - target: {fileID: 0}
    propertyPath: m_EditorHideFlags
    value: 0
    objectReference: {fileID: 0}
  - target: {fileID: 0}
    propertyPath: m_EditorClassIdentifier
    value: 
    objectReference: {fileID: 0}
  - target: {fileID: 0}
    propertyPath: m_Version
    value: 1
    objectReference: {fileID: 0}
  - target: {fileID: 0}
    propertyPath: profiles.Array.size
    value: 15
    objectReference: {fileID: 0}
  - target: {fileID: 0}
    propertyPath: profiles.Array.data[0].scatteringDistance.r
    value: 0.7568628
    objectReference: {fileID: 0}
  - target: {fileID: 0}
    propertyPath: profiles.Array.data[0].scatteringDistance.g
    value: 0.32156864
    objectReference: {fileID: 0}
  - target: {fileID: 0}
    propertyPath: profiles.Array.data[0].scatteringDistance.b
    value: 0.20000002
    objectReference: {fileID: 0}
  - target: {fileID: 0}
    propertyPath: profiles.Array.data[0].scatteringDistance.a
    value: 1
    objectReference: {fileID: 0}
  - target: {fileID: 0}
    propertyPath: profiles.Array.data[0].transmissionTint.r
    value: 0.75686276
    objectReference: {fileID: 0}
  - target: {fileID: 0}
    propertyPath: profiles.Array.data[0].transmissionTint.g
    value: 0.32156864
    objectReference: {fileID: 0}
  - target: {fileID: 0}
    propertyPath: profiles.Array.data[0].transmissionTint.b
    value: 0.2
    objectReference: {fileID: 0}
  - target: {fileID: 0}
    propertyPath: profiles.Array.data[0].transmissionTint.a
    value: 1
    objectReference: {fileID: 0}
  - target: {fileID: 0}
    propertyPath: profiles.Array.data[0].texturingMode
    value: 0
    objectReference: {fileID: 0}
  - target: {fileID: 0}
    propertyPath: profiles.Array.data[0].transmissionMode
    value: 2
    objectReference: {fileID: 0}
  - target: {fileID: 0}
    propertyPath: profiles.Array.data[0].thicknessRemap.x
    value: 0
    objectReference: {fileID: 0}
  - target: {fileID: 0}
    propertyPath: profiles.Array.data[0].thicknessRemap.y
    value: 8.152544
    objectReference: {fileID: 0}
  - target: {fileID: 0}
    propertyPath: profiles.Array.data[0].worldScale
    value: 1
    objectReference: {fileID: 0}
  - target: {fileID: 0}
    propertyPath: profiles.Array.data[0].ior
    value: 1.36
    objectReference: {fileID: 0}
  - target: {fileID: 0}
    propertyPath: profiles.Array.data[0].hash
    value: 0
    objectReference: {fileID: 0}
  - target: {fileID: 0}
    propertyPath: profiles.Array.data[1].scatteringDistance.r
    value: 0.7568628
    objectReference: {fileID: 0}
  - target: {fileID: 0}
    propertyPath: profiles.Array.data[1].scatteringDistance.g
    value: 0.7019608
    objectReference: {fileID: 0}
  - target: {fileID: 0}
    propertyPath: profiles.Array.data[1].scatteringDistance.b
    value: 0.24313727
    objectReference: {fileID: 0}
  - target: {fileID: 0}
    propertyPath: profiles.Array.data[1].scatteringDistance.a
    value: 1
    objectReference: {fileID: 0}
  - target: {fileID: 0}
    propertyPath: profiles.Array.data[1].transmissionTint.r
    value: 1
    objectReference: {fileID: 0}
  - target: {fileID: 0}
    propertyPath: profiles.Array.data[1].transmissionTint.g
    value: 1
    objectReference: {fileID: 0}
  - target: {fileID: 0}
    propertyPath: profiles.Array.data[1].transmissionTint.b
    value: 1
    objectReference: {fileID: 0}
  - target: {fileID: 0}
    propertyPath: profiles.Array.data[1].transmissionTint.a
    value: 1
    objectReference: {fileID: 0}
  - target: {fileID: 0}
    propertyPath: profiles.Array.data[1].texturingMode
    value: 0
    objectReference: {fileID: 0}
  - target: {fileID: 0}
    propertyPath: profiles.Array.data[1].transmissionMode
    value: 1
    objectReference: {fileID: 0}
  - target: {fileID: 0}
    propertyPath: profiles.Array.data[1].thicknessRemap.x
    value: 0
    objectReference: {fileID: 0}
  - target: {fileID: 0}
    propertyPath: profiles.Array.data[1].thicknessRemap.y
    value: 0.2873168
    objectReference: {fileID: 0}
  - target: {fileID: 0}
    propertyPath: profiles.Array.data[1].worldScale
    value: 1
    objectReference: {fileID: 0}
  - target: {fileID: 0}
    propertyPath: profiles.Array.data[1].ior
    value: 1.4
    objectReference: {fileID: 0}
  - target: {fileID: 0}
    propertyPath: profiles.Array.data[1].hash
    value: 0
    objectReference: {fileID: 0}
  - target: {fileID: 0}
    propertyPath: profiles.Array.data[2].scatteringDistance.r
    value: 0.5
    objectReference: {fileID: 0}
  - target: {fileID: 0}
    propertyPath: profiles.Array.data[2].scatteringDistance.g
    value: 0.5
    objectReference: {fileID: 0}
  - target: {fileID: 0}
    propertyPath: profiles.Array.data[2].scatteringDistance.b
    value: 0.5
    objectReference: {fileID: 0}
  - target: {fileID: 0}
    propertyPath: profiles.Array.data[2].scatteringDistance.a
    value: 1
    objectReference: {fileID: 0}
  - target: {fileID: 0}
    propertyPath: profiles.Array.data[2].transmissionTint.r
    value: 1
    objectReference: {fileID: 0}
  - target: {fileID: 0}
    propertyPath: profiles.Array.data[2].transmissionTint.g
    value: 1
    objectReference: {fileID: 0}
  - target: {fileID: 0}
    propertyPath: profiles.Array.data[2].transmissionTint.b
    value: 1
    objectReference: {fileID: 0}
  - target: {fileID: 0}
    propertyPath: profiles.Array.data[2].transmissionTint.a
    value: 1
    objectReference: {fileID: 0}
  - target: {fileID: 0}
    propertyPath: profiles.Array.data[2].texturingMode
    value: 0
    objectReference: {fileID: 0}
  - target: {fileID: 0}
    propertyPath: profiles.Array.data[2].transmissionMode
    value: 0
    objectReference: {fileID: 0}
  - target: {fileID: 0}
    propertyPath: profiles.Array.data[2].thicknessRemap.x
    value: 0
    objectReference: {fileID: 0}
  - target: {fileID: 0}
    propertyPath: profiles.Array.data[2].thicknessRemap.y
    value: 5
    objectReference: {fileID: 0}
  - target: {fileID: 0}
    propertyPath: profiles.Array.data[2].worldScale
    value: 1
    objectReference: {fileID: 0}
  - target: {fileID: 0}
    propertyPath: profiles.Array.data[2].ior
    value: 1.4
    objectReference: {fileID: 0}
  - target: {fileID: 0}
    propertyPath: profiles.Array.data[2].hash
    value: 0
    objectReference: {fileID: 0}
  - target: {fileID: 0}
    propertyPath: profiles.Array.data[3].scatteringDistance.r
    value: 0.5
    objectReference: {fileID: 0}
  - target: {fileID: 0}
    propertyPath: profiles.Array.data[3].scatteringDistance.g
    value: 0.5
    objectReference: {fileID: 0}
  - target: {fileID: 0}
    propertyPath: profiles.Array.data[3].scatteringDistance.b
    value: 0.5
    objectReference: {fileID: 0}
  - target: {fileID: 0}
    propertyPath: profiles.Array.data[3].scatteringDistance.a
    value: 1
    objectReference: {fileID: 0}
  - target: {fileID: 0}
    propertyPath: profiles.Array.data[3].transmissionTint.r
    value: 1
    objectReference: {fileID: 0}
  - target: {fileID: 0}
    propertyPath: profiles.Array.data[3].transmissionTint.g
    value: 1
    objectReference: {fileID: 0}
  - target: {fileID: 0}
    propertyPath: profiles.Array.data[3].transmissionTint.b
    value: 1
    objectReference: {fileID: 0}
  - target: {fileID: 0}
    propertyPath: profiles.Array.data[3].transmissionTint.a
    value: 1
    objectReference: {fileID: 0}
  - target: {fileID: 0}
    propertyPath: profiles.Array.data[3].texturingMode
    value: 0
    objectReference: {fileID: 0}
  - target: {fileID: 0}
    propertyPath: profiles.Array.data[3].transmissionMode
    value: 0
    objectReference: {fileID: 0}
  - target: {fileID: 0}
    propertyPath: profiles.Array.data[3].thicknessRemap.x
    value: 0
    objectReference: {fileID: 0}
  - target: {fileID: 0}
    propertyPath: profiles.Array.data[3].thicknessRemap.y
    value: 5
    objectReference: {fileID: 0}
  - target: {fileID: 0}
    propertyPath: profiles.Array.data[3].worldScale
    value: 1
    objectReference: {fileID: 0}
  - target: {fileID: 0}
    propertyPath: profiles.Array.data[3].ior
    value: 1.4
    objectReference: {fileID: 0}
  - target: {fileID: 0}
    propertyPath: profiles.Array.data[3].hash
    value: 0
    objectReference: {fileID: 0}
  - target: {fileID: 0}
    propertyPath: profiles.Array.data[4].scatteringDistance.r
    value: 0.5
    objectReference: {fileID: 0}
  - target: {fileID: 0}
    propertyPath: profiles.Array.data[4].scatteringDistance.g
    value: 0.5
    objectReference: {fileID: 0}
  - target: {fileID: 0}
    propertyPath: profiles.Array.data[4].scatteringDistance.b
    value: 0.5
    objectReference: {fileID: 0}
  - target: {fileID: 0}
    propertyPath: profiles.Array.data[4].scatteringDistance.a
    value: 1
    objectReference: {fileID: 0}
  - target: {fileID: 0}
    propertyPath: profiles.Array.data[4].transmissionTint.r
    value: 1
    objectReference: {fileID: 0}
  - target: {fileID: 0}
    propertyPath: profiles.Array.data[4].transmissionTint.g
    value: 1
    objectReference: {fileID: 0}
  - target: {fileID: 0}
    propertyPath: profiles.Array.data[4].transmissionTint.b
    value: 1
    objectReference: {fileID: 0}
  - target: {fileID: 0}
    propertyPath: profiles.Array.data[4].transmissionTint.a
    value: 1
    objectReference: {fileID: 0}
  - target: {fileID: 0}
    propertyPath: profiles.Array.data[4].texturingMode
    value: 0
    objectReference: {fileID: 0}
  - target: {fileID: 0}
    propertyPath: profiles.Array.data[4].transmissionMode
    value: 0
    objectReference: {fileID: 0}
  - target: {fileID: 0}
    propertyPath: profiles.Array.data[4].thicknessRemap.x
    value: 0
    objectReference: {fileID: 0}
  - target: {fileID: 0}
    propertyPath: profiles.Array.data[4].thicknessRemap.y
    value: 5
    objectReference: {fileID: 0}
  - target: {fileID: 0}
    propertyPath: profiles.Array.data[4].worldScale
    value: 1
    objectReference: {fileID: 0}
  - target: {fileID: 0}
    propertyPath: profiles.Array.data[4].ior
    value: 1.4
    objectReference: {fileID: 0}
  - target: {fileID: 0}
    propertyPath: profiles.Array.data[4].hash
    value: 0
    objectReference: {fileID: 0}
  - target: {fileID: 0}
    propertyPath: profiles.Array.data[5].scatteringDistance.r
    value: 0.5
    objectReference: {fileID: 0}
  - target: {fileID: 0}
    propertyPath: profiles.Array.data[5].scatteringDistance.g
    value: 0.5
    objectReference: {fileID: 0}
  - target: {fileID: 0}
    propertyPath: profiles.Array.data[5].scatteringDistance.b
    value: 0.5
    objectReference: {fileID: 0}
  - target: {fileID: 0}
    propertyPath: profiles.Array.data[5].scatteringDistance.a
    value: 1
    objectReference: {fileID: 0}
  - target: {fileID: 0}
    propertyPath: profiles.Array.data[5].transmissionTint.r
    value: 1
    objectReference: {fileID: 0}
  - target: {fileID: 0}
    propertyPath: profiles.Array.data[5].transmissionTint.g
    value: 1
    objectReference: {fileID: 0}
  - target: {fileID: 0}
    propertyPath: profiles.Array.data[5].transmissionTint.b
    value: 1
    objectReference: {fileID: 0}
  - target: {fileID: 0}
    propertyPath: profiles.Array.data[5].transmissionTint.a
    value: 1
    objectReference: {fileID: 0}
  - target: {fileID: 0}
    propertyPath: profiles.Array.data[5].texturingMode
    value: 0
    objectReference: {fileID: 0}
  - target: {fileID: 0}
    propertyPath: profiles.Array.data[5].transmissionMode
    value: 0
    objectReference: {fileID: 0}
  - target: {fileID: 0}
    propertyPath: profiles.Array.data[5].thicknessRemap.x
    value: 0
    objectReference: {fileID: 0}
  - target: {fileID: 0}
    propertyPath: profiles.Array.data[5].thicknessRemap.y
    value: 5
    objectReference: {fileID: 0}
  - target: {fileID: 0}
    propertyPath: profiles.Array.data[5].worldScale
    value: 1
    objectReference: {fileID: 0}
  - target: {fileID: 0}
    propertyPath: profiles.Array.data[5].ior
    value: 1.4
    objectReference: {fileID: 0}
  - target: {fileID: 0}
    propertyPath: profiles.Array.data[5].hash
    value: 0
    objectReference: {fileID: 0}
  - target: {fileID: 0}
    propertyPath: profiles.Array.data[6].scatteringDistance.r
    value: 0.5
    objectReference: {fileID: 0}
  - target: {fileID: 0}
    propertyPath: profiles.Array.data[6].scatteringDistance.g
    value: 0.5
    objectReference: {fileID: 0}
  - target: {fileID: 0}
    propertyPath: profiles.Array.data[6].scatteringDistance.b
    value: 0.5
    objectReference: {fileID: 0}
  - target: {fileID: 0}
    propertyPath: profiles.Array.data[6].scatteringDistance.a
    value: 1
    objectReference: {fileID: 0}
  - target: {fileID: 0}
    propertyPath: profiles.Array.data[6].transmissionTint.r
    value: 1
    objectReference: {fileID: 0}
  - target: {fileID: 0}
    propertyPath: profiles.Array.data[6].transmissionTint.g
    value: 1
    objectReference: {fileID: 0}
  - target: {fileID: 0}
    propertyPath: profiles.Array.data[6].transmissionTint.b
    value: 1
    objectReference: {fileID: 0}
  - target: {fileID: 0}
    propertyPath: profiles.Array.data[6].transmissionTint.a
    value: 1
    objectReference: {fileID: 0}
  - target: {fileID: 0}
    propertyPath: profiles.Array.data[6].texturingMode
    value: 0
    objectReference: {fileID: 0}
  - target: {fileID: 0}
    propertyPath: profiles.Array.data[6].transmissionMode
    value: 0
    objectReference: {fileID: 0}
  - target: {fileID: 0}
    propertyPath: profiles.Array.data[6].thicknessRemap.x
    value: 0
    objectReference: {fileID: 0}
  - target: {fileID: 0}
    propertyPath: profiles.Array.data[6].thicknessRemap.y
    value: 5
    objectReference: {fileID: 0}
  - target: {fileID: 0}
    propertyPath: profiles.Array.data[6].worldScale
    value: 1
    objectReference: {fileID: 0}
  - target: {fileID: 0}
    propertyPath: profiles.Array.data[6].ior
    value: 1.4
    objectReference: {fileID: 0}
  - target: {fileID: 0}
    propertyPath: profiles.Array.data[6].hash
    value: 0
    objectReference: {fileID: 0}
  - target: {fileID: 0}
    propertyPath: profiles.Array.data[7].scatteringDistance.r
    value: 0.5
    objectReference: {fileID: 0}
  - target: {fileID: 0}
    propertyPath: profiles.Array.data[7].scatteringDistance.g
    value: 0.5
    objectReference: {fileID: 0}
  - target: {fileID: 0}
    propertyPath: profiles.Array.data[7].scatteringDistance.b
    value: 0.5
    objectReference: {fileID: 0}
  - target: {fileID: 0}
    propertyPath: profiles.Array.data[7].scatteringDistance.a
    value: 1
    objectReference: {fileID: 0}
  - target: {fileID: 0}
    propertyPath: profiles.Array.data[7].transmissionTint.r
    value: 1
    objectReference: {fileID: 0}
  - target: {fileID: 0}
    propertyPath: profiles.Array.data[7].transmissionTint.g
    value: 1
    objectReference: {fileID: 0}
  - target: {fileID: 0}
    propertyPath: profiles.Array.data[7].transmissionTint.b
    value: 1
    objectReference: {fileID: 0}
  - target: {fileID: 0}
    propertyPath: profiles.Array.data[7].transmissionTint.a
    value: 1
    objectReference: {fileID: 0}
  - target: {fileID: 0}
    propertyPath: profiles.Array.data[7].texturingMode
    value: 0
    objectReference: {fileID: 0}
  - target: {fileID: 0}
    propertyPath: profiles.Array.data[7].transmissionMode
    value: 0
    objectReference: {fileID: 0}
  - target: {fileID: 0}
    propertyPath: profiles.Array.data[7].thicknessRemap.x
    value: 0
    objectReference: {fileID: 0}
  - target: {fileID: 0}
    propertyPath: profiles.Array.data[7].thicknessRemap.y
    value: 5
    objectReference: {fileID: 0}
  - target: {fileID: 0}
    propertyPath: profiles.Array.data[7].worldScale
    value: 1
    objectReference: {fileID: 0}
  - target: {fileID: 0}
    propertyPath: profiles.Array.data[7].ior
    value: 1.4
    objectReference: {fileID: 0}
  - target: {fileID: 0}
    propertyPath: profiles.Array.data[7].hash
    value: 0
    objectReference: {fileID: 0}
  - target: {fileID: 0}
    propertyPath: profiles.Array.data[8].scatteringDistance.r
    value: 0.5
    objectReference: {fileID: 0}
  - target: {fileID: 0}
    propertyPath: profiles.Array.data[8].scatteringDistance.g
    value: 0.5
    objectReference: {fileID: 0}
  - target: {fileID: 0}
    propertyPath: profiles.Array.data[8].scatteringDistance.b
    value: 0.5
    objectReference: {fileID: 0}
  - target: {fileID: 0}
    propertyPath: profiles.Array.data[8].scatteringDistance.a
    value: 1
    objectReference: {fileID: 0}
  - target: {fileID: 0}
    propertyPath: profiles.Array.data[8].transmissionTint.r
    value: 1
    objectReference: {fileID: 0}
  - target: {fileID: 0}
    propertyPath: profiles.Array.data[8].transmissionTint.g
    value: 1
    objectReference: {fileID: 0}
  - target: {fileID: 0}
    propertyPath: profiles.Array.data[8].transmissionTint.b
    value: 1
    objectReference: {fileID: 0}
  - target: {fileID: 0}
    propertyPath: profiles.Array.data[8].transmissionTint.a
    value: 1
    objectReference: {fileID: 0}
  - target: {fileID: 0}
    propertyPath: profiles.Array.data[8].texturingMode
    value: 0
    objectReference: {fileID: 0}
  - target: {fileID: 0}
    propertyPath: profiles.Array.data[8].transmissionMode
    value: 0
    objectReference: {fileID: 0}
  - target: {fileID: 0}
    propertyPath: profiles.Array.data[8].thicknessRemap.x
    value: 0
    objectReference: {fileID: 0}
  - target: {fileID: 0}
    propertyPath: profiles.Array.data[8].thicknessRemap.y
    value: 5
    objectReference: {fileID: 0}
  - target: {fileID: 0}
    propertyPath: profiles.Array.data[8].worldScale
    value: 1
    objectReference: {fileID: 0}
  - target: {fileID: 0}
    propertyPath: profiles.Array.data[8].ior
    value: 1.4
    objectReference: {fileID: 0}
  - target: {fileID: 0}
    propertyPath: profiles.Array.data[8].hash
    value: 0
    objectReference: {fileID: 0}
  - target: {fileID: 0}
    propertyPath: profiles.Array.data[9].scatteringDistance.r
    value: 0.5
    objectReference: {fileID: 0}
  - target: {fileID: 0}
    propertyPath: profiles.Array.data[9].scatteringDistance.g
    value: 0.5
    objectReference: {fileID: 0}
  - target: {fileID: 0}
    propertyPath: profiles.Array.data[9].scatteringDistance.b
    value: 0.5
    objectReference: {fileID: 0}
  - target: {fileID: 0}
    propertyPath: profiles.Array.data[9].scatteringDistance.a
    value: 1
    objectReference: {fileID: 0}
  - target: {fileID: 0}
    propertyPath: profiles.Array.data[9].transmissionTint.r
    value: 1
    objectReference: {fileID: 0}
  - target: {fileID: 0}
    propertyPath: profiles.Array.data[9].transmissionTint.g
    value: 1
    objectReference: {fileID: 0}
  - target: {fileID: 0}
    propertyPath: profiles.Array.data[9].transmissionTint.b
    value: 1
    objectReference: {fileID: 0}
  - target: {fileID: 0}
    propertyPath: profiles.Array.data[9].transmissionTint.a
    value: 1
    objectReference: {fileID: 0}
  - target: {fileID: 0}
    propertyPath: profiles.Array.data[9].texturingMode
    value: 0
    objectReference: {fileID: 0}
  - target: {fileID: 0}
    propertyPath: profiles.Array.data[9].transmissionMode
    value: 0
    objectReference: {fileID: 0}
  - target: {fileID: 0}
    propertyPath: profiles.Array.data[9].thicknessRemap.x
    value: 0
    objectReference: {fileID: 0}
  - target: {fileID: 0}
    propertyPath: profiles.Array.data[9].thicknessRemap.y
    value: 5
    objectReference: {fileID: 0}
  - target: {fileID: 0}
    propertyPath: profiles.Array.data[9].worldScale
    value: 1
    objectReference: {fileID: 0}
  - target: {fileID: 0}
    propertyPath: profiles.Array.data[9].ior
    value: 1.4
    objectReference: {fileID: 0}
  - target: {fileID: 0}
    propertyPath: profiles.Array.data[9].hash
    value: 0
    objectReference: {fileID: 0}
  - target: {fileID: 0}
    propertyPath: profiles.Array.data[10].scatteringDistance.r
    value: 0.5
    objectReference: {fileID: 0}
  - target: {fileID: 0}
    propertyPath: profiles.Array.data[10].scatteringDistance.g
    value: 0.5
    objectReference: {fileID: 0}
  - target: {fileID: 0}
    propertyPath: profiles.Array.data[10].scatteringDistance.b
    value: 0.5
    objectReference: {fileID: 0}
  - target: {fileID: 0}
    propertyPath: profiles.Array.data[10].scatteringDistance.a
    value: 1
    objectReference: {fileID: 0}
  - target: {fileID: 0}
    propertyPath: profiles.Array.data[10].transmissionTint.r
    value: 1
    objectReference: {fileID: 0}
  - target: {fileID: 0}
    propertyPath: profiles.Array.data[10].transmissionTint.g
    value: 1
    objectReference: {fileID: 0}
  - target: {fileID: 0}
    propertyPath: profiles.Array.data[10].transmissionTint.b
    value: 1
    objectReference: {fileID: 0}
  - target: {fileID: 0}
    propertyPath: profiles.Array.data[10].transmissionTint.a
    value: 1
    objectReference: {fileID: 0}
  - target: {fileID: 0}
    propertyPath: profiles.Array.data[10].texturingMode
    value: 0
    objectReference: {fileID: 0}
  - target: {fileID: 0}
    propertyPath: profiles.Array.data[10].transmissionMode
    value: 0
    objectReference: {fileID: 0}
  - target: {fileID: 0}
    propertyPath: profiles.Array.data[10].thicknessRemap.x
    value: 0
    objectReference: {fileID: 0}
  - target: {fileID: 0}
    propertyPath: profiles.Array.data[10].thicknessRemap.y
    value: 5
    objectReference: {fileID: 0}
  - target: {fileID: 0}
    propertyPath: profiles.Array.data[10].worldScale
    value: 1
    objectReference: {fileID: 0}
  - target: {fileID: 0}
    propertyPath: profiles.Array.data[10].ior
    value: 1.4
    objectReference: {fileID: 0}
  - target: {fileID: 0}
    propertyPath: profiles.Array.data[10].hash
    value: 0
    objectReference: {fileID: 0}
  - target: {fileID: 0}
    propertyPath: profiles.Array.data[11].scatteringDistance.r
    value: 0.5
    objectReference: {fileID: 0}
  - target: {fileID: 0}
    propertyPath: profiles.Array.data[11].scatteringDistance.g
    value: 0.5
    objectReference: {fileID: 0}
  - target: {fileID: 0}
    propertyPath: profiles.Array.data[11].scatteringDistance.b
    value: 0.5
    objectReference: {fileID: 0}
  - target: {fileID: 0}
    propertyPath: profiles.Array.data[11].scatteringDistance.a
    value: 1
    objectReference: {fileID: 0}
  - target: {fileID: 0}
    propertyPath: profiles.Array.data[11].transmissionTint.r
    value: 1
    objectReference: {fileID: 0}
  - target: {fileID: 0}
    propertyPath: profiles.Array.data[11].transmissionTint.g
    value: 1
    objectReference: {fileID: 0}
  - target: {fileID: 0}
    propertyPath: profiles.Array.data[11].transmissionTint.b
    value: 1
    objectReference: {fileID: 0}
  - target: {fileID: 0}
    propertyPath: profiles.Array.data[11].transmissionTint.a
    value: 1
    objectReference: {fileID: 0}
  - target: {fileID: 0}
    propertyPath: profiles.Array.data[11].texturingMode
    value: 0
    objectReference: {fileID: 0}
  - target: {fileID: 0}
    propertyPath: profiles.Array.data[11].transmissionMode
    value: 0
    objectReference: {fileID: 0}
  - target: {fileID: 0}
    propertyPath: profiles.Array.data[11].thicknessRemap.x
    value: 0
    objectReference: {fileID: 0}
  - target: {fileID: 0}
    propertyPath: profiles.Array.data[11].thicknessRemap.y
    value: 5
    objectReference: {fileID: 0}
  - target: {fileID: 0}
    propertyPath: profiles.Array.data[11].worldScale
    value: 1
    objectReference: {fileID: 0}
  - target: {fileID: 0}
    propertyPath: profiles.Array.data[11].ior
    value: 1.4
    objectReference: {fileID: 0}
  - target: {fileID: 0}
    propertyPath: profiles.Array.data[11].hash
    value: 0
    objectReference: {fileID: 0}
  - target: {fileID: 0}
    propertyPath: profiles.Array.data[12].scatteringDistance.r
    value: 0.5
    objectReference: {fileID: 0}
  - target: {fileID: 0}
    propertyPath: profiles.Array.data[12].scatteringDistance.g
    value: 0.5
    objectReference: {fileID: 0}
  - target: {fileID: 0}
    propertyPath: profiles.Array.data[12].scatteringDistance.b
    value: 0.5
    objectReference: {fileID: 0}
  - target: {fileID: 0}
    propertyPath: profiles.Array.data[12].scatteringDistance.a
    value: 1
    objectReference: {fileID: 0}
  - target: {fileID: 0}
    propertyPath: profiles.Array.data[12].transmissionTint.r
    value: 1
    objectReference: {fileID: 0}
  - target: {fileID: 0}
    propertyPath: profiles.Array.data[12].transmissionTint.g
    value: 1
    objectReference: {fileID: 0}
  - target: {fileID: 0}
    propertyPath: profiles.Array.data[12].transmissionTint.b
    value: 1
    objectReference: {fileID: 0}
  - target: {fileID: 0}
    propertyPath: profiles.Array.data[12].transmissionTint.a
    value: 1
    objectReference: {fileID: 0}
  - target: {fileID: 0}
    propertyPath: profiles.Array.data[12].texturingMode
    value: 0
    objectReference: {fileID: 0}
  - target: {fileID: 0}
    propertyPath: profiles.Array.data[12].transmissionMode
    value: 0
    objectReference: {fileID: 0}
  - target: {fileID: 0}
    propertyPath: profiles.Array.data[12].thicknessRemap.x
    value: 0
    objectReference: {fileID: 0}
  - target: {fileID: 0}
    propertyPath: profiles.Array.data[12].thicknessRemap.y
    value: 5
    objectReference: {fileID: 0}
  - target: {fileID: 0}
    propertyPath: profiles.Array.data[12].worldScale
    value: 1
    objectReference: {fileID: 0}
  - target: {fileID: 0}
    propertyPath: profiles.Array.data[12].ior
    value: 1.4
    objectReference: {fileID: 0}
  - target: {fileID: 0}
    propertyPath: profiles.Array.data[12].hash
    value: 0
    objectReference: {fileID: 0}
  - target: {fileID: 0}
    propertyPath: profiles.Array.data[13].scatteringDistance.r
    value: 0.5
    objectReference: {fileID: 0}
  - target: {fileID: 0}
    propertyPath: profiles.Array.data[13].scatteringDistance.g
    value: 0.5
    objectReference: {fileID: 0}
  - target: {fileID: 0}
    propertyPath: profiles.Array.data[13].scatteringDistance.b
    value: 0.5
    objectReference: {fileID: 0}
  - target: {fileID: 0}
    propertyPath: profiles.Array.data[13].scatteringDistance.a
    value: 1
    objectReference: {fileID: 0}
  - target: {fileID: 0}
    propertyPath: profiles.Array.data[13].transmissionTint.r
    value: 1
    objectReference: {fileID: 0}
  - target: {fileID: 0}
    propertyPath: profiles.Array.data[13].transmissionTint.g
    value: 1
    objectReference: {fileID: 0}
  - target: {fileID: 0}
    propertyPath: profiles.Array.data[13].transmissionTint.b
    value: 1
    objectReference: {fileID: 0}
  - target: {fileID: 0}
    propertyPath: profiles.Array.data[13].transmissionTint.a
    value: 1
    objectReference: {fileID: 0}
  - target: {fileID: 0}
    propertyPath: profiles.Array.data[13].texturingMode
    value: 0
    objectReference: {fileID: 0}
  - target: {fileID: 0}
    propertyPath: profiles.Array.data[13].transmissionMode
    value: 0
    objectReference: {fileID: 0}
  - target: {fileID: 0}
    propertyPath: profiles.Array.data[13].thicknessRemap.x
    value: 0
    objectReference: {fileID: 0}
  - target: {fileID: 0}
    propertyPath: profiles.Array.data[13].thicknessRemap.y
    value: 5
    objectReference: {fileID: 0}
  - target: {fileID: 0}
    propertyPath: profiles.Array.data[13].worldScale
    value: 1
    objectReference: {fileID: 0}
  - target: {fileID: 0}
    propertyPath: profiles.Array.data[13].ior
    value: 1.4
    objectReference: {fileID: 0}
  - target: {fileID: 0}
    propertyPath: profiles.Array.data[13].hash
    value: 0
    objectReference: {fileID: 0}
  - target: {fileID: 0}
    propertyPath: profiles.Array.data[14].scatteringDistance.r
    value: 0.5
    objectReference: {fileID: 0}
  - target: {fileID: 0}
    propertyPath: profiles.Array.data[14].scatteringDistance.g
    value: 0.5
    objectReference: {fileID: 0}
  - target: {fileID: 0}
    propertyPath: profiles.Array.data[14].scatteringDistance.b
    value: 0.5
    objectReference: {fileID: 0}
  - target: {fileID: 0}
    propertyPath: profiles.Array.data[14].scatteringDistance.a
    value: 1
    objectReference: {fileID: 0}
  - target: {fileID: 0}
    propertyPath: profiles.Array.data[14].transmissionTint.r
    value: 1
    objectReference: {fileID: 0}
  - target: {fileID: 0}
    propertyPath: profiles.Array.data[14].transmissionTint.g
    value: 1
    objectReference: {fileID: 0}
  - target: {fileID: 0}
    propertyPath: profiles.Array.data[14].transmissionTint.b
    value: 1
    objectReference: {fileID: 0}
  - target: {fileID: 0}
    propertyPath: profiles.Array.data[14].transmissionTint.a
    value: 1
    objectReference: {fileID: 0}
  - target: {fileID: 0}
    propertyPath: profiles.Array.data[14].texturingMode
    value: 0
    objectReference: {fileID: 0}
  - target: {fileID: 0}
    propertyPath: profiles.Array.data[14].transmissionMode
    value: 0
    objectReference: {fileID: 0}
  - target: {fileID: 0}
    propertyPath: profiles.Array.data[14].thicknessRemap.x
    value: 0
    objectReference: {fileID: 0}
  - target: {fileID: 0}
    propertyPath: profiles.Array.data[14].thicknessRemap.y
    value: 5
    objectReference: {fileID: 0}
  - target: {fileID: 0}
    propertyPath: profiles.Array.data[14].worldScale
    value: 1
    objectReference: {fileID: 0}
  - target: {fileID: 0}
    propertyPath: profiles.Array.data[14].ior
    value: 1.4
    objectReference: {fileID: 0}
  - target: {fileID: 0}
    propertyPath: profiles.Array.data[14].hash
    value: 0
    objectReference: {fileID: 0}
  - target: {fileID: 0}
    propertyPath: profile.scatteringDistance.r
    value: 0
    objectReference: {fileID: 0}
  - target: {fileID: 0}
    propertyPath: profile.scatteringDistance.g
    value: 0
    objectReference: {fileID: 0}
  - target: {fileID: 0}
    propertyPath: profile.scatteringDistance.b
    value: 0
    objectReference: {fileID: 0}
  - target: {fileID: 0}
    propertyPath: profile.scatteringDistance.a
    value: 0
    objectReference: {fileID: 0}
  - target: {fileID: 0}
    propertyPath: profile.transmissionTint.r
    value: 0
    objectReference: {fileID: 0}
  - target: {fileID: 0}
    propertyPath: profile.transmissionTint.g
    value: 0
    objectReference: {fileID: 0}
  - target: {fileID: 0}
    propertyPath: profile.transmissionTint.b
    value: 0
    objectReference: {fileID: 0}
  - target: {fileID: 0}
    propertyPath: profile.transmissionTint.a
    value: 0
    objectReference: {fileID: 0}
  - target: {fileID: 0}
    propertyPath: profile.texturingMode
    value: 0
    objectReference: {fileID: 0}
  - target: {fileID: 0}
    propertyPath: profile.transmissionMode
    value: 0
    objectReference: {fileID: 0}
  - target: {fileID: 0}
    propertyPath: profile.thicknessRemap.x
    value: 0
    objectReference: {fileID: 0}
  - target: {fileID: 0}
    propertyPath: profile.thicknessRemap.y
    value: 0
    objectReference: {fileID: 0}
  - target: {fileID: 0}
    propertyPath: profile.worldScale
    value: 0.001
    objectReference: {fileID: 0}
  - target: {fileID: 0}
    propertyPath: profile.ior
    value: 1
    objectReference: {fileID: 0}
  - target: {fileID: 0}
    propertyPath: profile.hash
    value: 0
    objectReference: {fileID: 0}
