%YAML 1.1
%TAG !u! tag:unity3d.com,2011:
--- !u!1 &7509963844840855468
GameObject:
  m_ObjectHideFlags: 0
  m_CorrespondingSourceObject: {fileID: 0}
  m_PrefabInstance: {fileID: 0}
  m_PrefabAsset: {fileID: 0}
  serializedVersion: 6
  m_Component:
  - component: {fileID: 6344649417832550947}
  - component: {fileID: 5574602430187116345}
  - component: {fileID: 1611950233623418772}
  - component: {fileID: 6014422397770501193}
  m_Layer: 5
  m_Name: PREF_UI_PotionSlots
  m_TagString: Untagged
  m_Icon: {fileID: 0}
  m_NavMeshLayer: 0
  m_StaticEditorFlags: 0
  m_IsActive: 1
--- !u!224 &6344649417832550947
RectTransform:
  m_ObjectHideFlags: 0
  m_CorrespondingSourceObject: {fileID: 0}
  m_PrefabInstance: {fileID: 0}
  m_PrefabAsset: {fileID: 0}
  m_GameObject: {fileID: 7509963844840855468}
  m_LocalRotation: {x: -0, y: -0, z: -0, w: 1}
  m_LocalPosition: {x: 0, y: 0, z: 0}
  m_LocalScale: {x: 1, y: 1, z: 1}
  m_Children: []
  m_Father: {fileID: 0}
  m_RootOrder: 0
  m_LocalEulerAnglesHint: {x: 0, y: 0, z: 0}
  m_AnchorMin: {x: 1, y: 1}
  m_AnchorMax: {x: 1, y: 1}
  m_AnchoredPosition: {x: -195.5, y: -104}
  m_SizeDelta: {x: 32, y: 32}
  m_Pivot: {x: 1, y: 1}
--- !u!114 &5574602430187116345
MonoBehaviour:
  m_ObjectHideFlags: 0
  m_CorrespondingSourceObject: {fileID: 0}
  m_PrefabInstance: {fileID: 0}
  m_PrefabAsset: {fileID: 0}
  m_GameObject: {fileID: 7509963844840855468}
  m_Enabled: 1
  m_EditorHideFlags: 0
  m_Script: {fileID: 11500000, guid: ba9582d4789d5dd47b305559aa6f3283, type: 3}
  m_Name: 
  m_EditorClassIdentifier: 
  m_Padding:
    m_Left: 0
    m_Right: 0
    m_Top: 0
    m_Bottom: 0
  m_ChildAlignment: 0
  m_ElementSpreadOffset: -24
  m_ElementSpaceOffset: 17.5
  m_ChildSize: {x: 32, y: 32}
--- !u!114 &1611950233623418772
MonoBehaviour:
  m_ObjectHideFlags: 0
  m_CorrespondingSourceObject: {fileID: 0}
  m_PrefabInstance: {fileID: 0}
  m_PrefabAsset: {fileID: 0}
  m_GameObject: {fileID: 7509963844840855468}
  m_Enabled: 1
  m_EditorHideFlags: 0
  m_Script: {fileID: 11500000, guid: 728327021d8ea1441af72ba17cf0ab9b, type: 3}
  m_Name: 
  m_EditorClassIdentifier: 
--- !u!114 &6014422397770501193
MonoBehaviour:
  m_ObjectHideFlags: 0
  m_CorrespondingSourceObject: {fileID: 0}
  m_PrefabInstance: {fileID: 0}
  m_PrefabAsset: {fileID: 0}
  m_GameObject: {fileID: 7509963844840855468}
  m_Enabled: 1
  m_EditorHideFlags: 0
  m_Script: {fileID: 11500000, guid: 2ada74fa370440078fd3b0ae6aae7e10, type: 3}
  m_Name: 
  m_EditorClassIdentifier: 
  m_PotionSlotEmptyPrefab: {fileID: 3268966375443575738, guid: e7f6d0e9557c85a4da21b96ac1f2623a,
    type: 3}
  m_PotionSlotFullPrefab: {fileID: 3268966375443575738, guid: 645872eae1be26f4392bb03d17183cd4,
    type: 3}
