%YAML 1.1
%TAG !u! tag:unity3d.com,2011:
--- !u!29 &1
OcclusionCullingSettings:
  m_ObjectHideFlags: 0
  serializedVersion: 2
  m_OcclusionBakeSettings:
    smallestOccluder: 5
    smallestHole: 0.25
    backfaceThreshold: 100
  m_SceneGUID: 00000000000000000000000000000000
  m_OcclusionCullingData: {fileID: 0}
--- !u!104 &2
RenderSettings:
  m_ObjectHideFlags: 0
  serializedVersion: 9
  m_Fog: 0
  m_FogColor: {r: 0.5, g: 0.5, b: 0.5, a: 1}
  m_FogMode: 3
  m_FogDensity: 0.01
  m_LinearFogStart: 0
  m_LinearFogEnd: 300
  m_AmbientSkyColor: {r: 0.212, g: 0.227, b: 0.259, a: 1}
  m_AmbientEquatorColor: {r: 0.114, g: 0.125, b: 0.133, a: 1}
  m_AmbientGroundColor: {r: 0.047, g: 0.043, b: 0.035, a: 1}
  m_AmbientIntensity: 1
  m_AmbientMode: 0
  m_SubtractiveShadowColor: {r: 0.42, g: 0.478, b: 0.627, a: 1}
  m_SkyboxMaterial: {fileID: 0}
  m_HaloStrength: 0.5
  m_FlareStrength: 1
  m_FlareFadeSpeed: 3
  m_HaloTexture: {fileID: 0}
  m_SpotCookie: {fileID: 10001, guid: 0000000000000000e000000000000000, type: 0}
  m_DefaultReflectionMode: 0
  m_DefaultReflectionResolution: 128
  m_ReflectionBounces: 1
  m_ReflectionIntensity: 1
  m_CustomReflection: {fileID: 0}
  m_Sun: {fileID: 0}
  m_IndirectSpecularColor: {r: 0, g: 0, b: 0, a: 1}
  m_UseRadianceAmbientProbe: 0
--- !u!157 &3
LightmapSettings:
  m_ObjectHideFlags: 0
  serializedVersion: 11
  m_GIWorkflowMode: 1
  m_GISettings:
    serializedVersion: 2
    m_BounceScale: 1
    m_IndirectOutputScale: 1
    m_AlbedoBoost: 1
    m_EnvironmentLightingMode: 0
    m_EnableBakedLightmaps: 1
    m_EnableRealtimeLightmaps: 0
  m_LightmapEditorSettings:
    serializedVersion: 12
    m_Resolution: 2
    m_BakeResolution: 40
    m_AtlasSize: 1024
    m_AO: 1
    m_AOMaxDistance: 1
    m_CompAOExponent: 1
    m_CompAOExponentDirect: 0
    m_ExtractAmbientOcclusion: 0
    m_Padding: 2
    m_LightmapParameters: {fileID: 0}
    m_LightmapsBakeMode: 1
    m_TextureCompression: 1
    m_FinalGather: 0
    m_FinalGatherFiltering: 1
    m_FinalGatherRayCount: 256
    m_ReflectionCompression: 2
    m_MixedBakeMode: 2
    m_BakeBackend: 1
    m_PVRSampling: 1
    m_PVRDirectSampleCount: 32
    m_PVRSampleCount: 512
    m_PVRBounces: 2
    m_PVREnvironmentSampleCount: 256
    m_PVREnvironmentReferencePointCount: 2048
    m_PVRFilteringMode: 1
    m_PVRDenoiserTypeDirect: 1
    m_PVRDenoiserTypeIndirect: 1
    m_PVRDenoiserTypeAO: 1
    m_PVRFilterTypeDirect: 0
    m_PVRFilterTypeIndirect: 0
    m_PVRFilterTypeAO: 0
    m_PVREnvironmentMIS: 1
    m_PVRCulling: 1
    m_PVRFilteringGaussRadiusDirect: 1
    m_PVRFilteringGaussRadiusIndirect: 5
    m_PVRFilteringGaussRadiusAO: 2
    m_PVRFilteringAtrousPositionSigmaDirect: 0.5
    m_PVRFilteringAtrousPositionSigmaIndirect: 2
    m_PVRFilteringAtrousPositionSigmaAO: 1
    m_ExportTrainingData: 0
    m_TrainingDataDestination: TrainingData
    m_LightProbeSampleCountMultiplier: 4
  m_LightingDataAsset: {fileID: 112000004, guid: 186bc63558a57294199601495e172aab,
    type: 2}
  m_UseShadowmask: 1
--- !u!196 &4
NavMeshSettings:
  serializedVersion: 2
  m_ObjectHideFlags: 0
  m_BuildSettings:
    serializedVersion: 2
    agentTypeID: 0
    agentRadius: 0.5
    agentHeight: 2
    agentSlope: 45
    agentClimb: 0.4
    ledgeDropHeight: 0
    maxJumpAcrossDistance: 0
    minRegionArea: 2
    manualCellSize: 0
    cellSize: 0.16666667
    manualTileSize: 0
    tileSize: 256
    accuratePlacement: 0
    debug:
      m_Flags: 0
  m_NavMeshData: {fileID: 0}
--- !u!1001 &841149882
PrefabInstance:
  m_ObjectHideFlags: 0
  serializedVersion: 2
  m_Modification:
    m_TransformParent: {fileID: 0}
    m_Modifications:
    - target: {fileID: 3794803532559449001, guid: 6d752b626d0324d4db60dcdfd97d9892,
        type: 3}
      propertyPath: m_Name
      value: PREF_Camera_UI
      objectReference: {fileID: 0}
    - target: {fileID: 3794803532559449001, guid: 6d752b626d0324d4db60dcdfd97d9892,
        type: 3}
      propertyPath: m_IsActive
      value: 1
      objectReference: {fileID: 0}
    - target: {fileID: 6231728094527846180, guid: 6d752b626d0324d4db60dcdfd97d9892,
        type: 3}
      propertyPath: m_CameraType
      value: 1
      objectReference: {fileID: 0}
    - target: {fileID: 8477376281982652615, guid: 6d752b626d0324d4db60dcdfd97d9892,
        type: 3}
      propertyPath: m_LocalPosition.x
      value: 0
      objectReference: {fileID: 0}
    - target: {fileID: 8477376281982652615, guid: 6d752b626d0324d4db60dcdfd97d9892,
        type: 3}
      propertyPath: m_LocalPosition.y
      value: 0
      objectReference: {fileID: 0}
    - target: {fileID: 8477376281982652615, guid: 6d752b626d0324d4db60dcdfd97d9892,
        type: 3}
      propertyPath: m_LocalPosition.z
      value: 0
      objectReference: {fileID: 0}
    - target: {fileID: 8477376281982652615, guid: 6d752b626d0324d4db60dcdfd97d9892,
        type: 3}
      propertyPath: m_LocalRotation.x
      value: 0
      objectReference: {fileID: 0}
    - target: {fileID: 8477376281982652615, guid: 6d752b626d0324d4db60dcdfd97d9892,
        type: 3}
      propertyPath: m_LocalRotation.y
      value: 0
      objectReference: {fileID: 0}
    - target: {fileID: 8477376281982652615, guid: 6d752b626d0324d4db60dcdfd97d9892,
        type: 3}
      propertyPath: m_LocalRotation.z
      value: 0
      objectReference: {fileID: 0}
    - target: {fileID: 8477376281982652615, guid: 6d752b626d0324d4db60dcdfd97d9892,
        type: 3}
      propertyPath: m_LocalRotation.w
      value: 1
      objectReference: {fileID: 0}
    - target: {fileID: 8477376281982652615, guid: 6d752b626d0324d4db60dcdfd97d9892,
        type: 3}
      propertyPath: m_RootOrder
      value: 0
      objectReference: {fileID: 0}
    - target: {fileID: 8477376281982652615, guid: 6d752b626d0324d4db60dcdfd97d9892,
        type: 3}
      propertyPath: m_LocalEulerAnglesHint.x
      value: 0
      objectReference: {fileID: 0}
    - target: {fileID: 8477376281982652615, guid: 6d752b626d0324d4db60dcdfd97d9892,
        type: 3}
      propertyPath: m_LocalEulerAnglesHint.y
      value: 0
      objectReference: {fileID: 0}
    - target: {fileID: 8477376281982652615, guid: 6d752b626d0324d4db60dcdfd97d9892,
        type: 3}
      propertyPath: m_LocalEulerAnglesHint.z
      value: 0
      objectReference: {fileID: 0}
    m_RemovedComponents: []
  m_SourcePrefab: {fileID: 100100000, guid: 6d752b626d0324d4db60dcdfd97d9892, type: 3}
--- !u!20 &841149883 stripped
Camera:
  m_CorrespondingSourceObject: {fileID: 4646521154208116426, guid: 6d752b626d0324d4db60dcdfd97d9892,
    type: 3}
  m_PrefabInstance: {fileID: 841149882}
  m_PrefabAsset: {fileID: 0}
--- !u!1 &1128355946
GameObject:
  m_ObjectHideFlags: 0
  m_CorrespondingSourceObject: {fileID: 0}
  m_PrefabInstance: {fileID: 0}
  m_PrefabAsset: {fileID: 0}
  serializedVersion: 6
  m_Component:
  - component: {fileID: 1128355948}
  - component: {fileID: 1128355947}
  m_Layer: 8
  m_Name: PostProcessVolume
  m_TagString: Untagged
  m_Icon: {fileID: 0}
  m_NavMeshLayer: 0
  m_StaticEditorFlags: 0
  m_IsActive: 1
--- !u!114 &1128355947
MonoBehaviour:
  m_ObjectHideFlags: 0
  m_CorrespondingSourceObject: {fileID: 0}
  m_PrefabInstance: {fileID: 0}
  m_PrefabAsset: {fileID: 0}
  m_GameObject: {fileID: 1128355946}
  m_Enabled: 1
  m_EditorHideFlags: 0
  m_Script: {fileID: 11500000, guid: 172515602e62fb746b5d573b38a5fe58, type: 3}
  m_Name: 
  m_EditorClassIdentifier: 
  isGlobal: 1
  priority: 0
  blendDistance: 0
  weight: 1
  sharedProfile: {fileID: 11400000, guid: 5e68d879617c1d24ab332644c33b6c14, type: 2}
--- !u!4 &1128355948
Transform:
  m_ObjectHideFlags: 0
  m_CorrespondingSourceObject: {fileID: 0}
  m_PrefabInstance: {fileID: 0}
  m_PrefabAsset: {fileID: 0}
  m_GameObject: {fileID: 1128355946}
  m_LocalRotation: {x: 0, y: 0, z: 0, w: 1}
  m_LocalPosition: {x: 0, y: 0, z: 0}
  m_LocalScale: {x: 1, y: 1, z: 1}
  m_Children: []
  m_Father: {fileID: 0}
  m_RootOrder: 4
  m_LocalEulerAnglesHint: {x: 0, y: 0, z: 0}
--- !u!1001 &1303829692
PrefabInstance:
  m_ObjectHideFlags: 0
  serializedVersion: 2
  m_Modification:
    m_TransformParent: {fileID: 0}
    m_Modifications:
    - target: {fileID: 2924534473735894393, guid: 1f88c7dff5447d54a81d22f780c19f1d,
        type: 3}
      propertyPath: m_HDR
      value: 0
      objectReference: {fileID: 0}
    - target: {fileID: 2924534473735894393, guid: 1f88c7dff5447d54a81d22f780c19f1d,
        type: 3}
      propertyPath: m_AllowMSAA
      value: 0
      objectReference: {fileID: 0}
    - target: {fileID: 2924534473735894393, guid: 1f88c7dff5447d54a81d22f780c19f1d,
        type: 3}
      propertyPath: m_AllowDynamicResolution
      value: 0
      objectReference: {fileID: 0}
    - target: {fileID: 2924534473735894394, guid: 1f88c7dff5447d54a81d22f780c19f1d,
        type: 3}
      propertyPath: m_Name
      value: PREF_Camera_Game
      objectReference: {fileID: 0}
    - target: {fileID: 2924534473735894394, guid: 1f88c7dff5447d54a81d22f780c19f1d,
        type: 3}
      propertyPath: m_IsActive
      value: 1
      objectReference: {fileID: 0}
    - target: {fileID: 2924534473735894398, guid: 1f88c7dff5447d54a81d22f780c19f1d,
        type: 3}
      propertyPath: m_LocalPosition.x
      value: 0
      objectReference: {fileID: 0}
    - target: {fileID: 2924534473735894398, guid: 1f88c7dff5447d54a81d22f780c19f1d,
        type: 3}
      propertyPath: m_LocalPosition.y
      value: 6.24
      objectReference: {fileID: 0}
    - target: {fileID: 2924534473735894398, guid: 1f88c7dff5447d54a81d22f780c19f1d,
        type: 3}
      propertyPath: m_LocalPosition.z
      value: -8.42
      objectReference: {fileID: 0}
    - target: {fileID: 2924534473735894398, guid: 1f88c7dff5447d54a81d22f780c19f1d,
        type: 3}
      propertyPath: m_LocalRotation.x
      value: 0.28158793
      objectReference: {fileID: 0}
    - target: {fileID: 2924534473735894398, guid: 1f88c7dff5447d54a81d22f780c19f1d,
        type: 3}
      propertyPath: m_LocalRotation.y
      value: -0
      objectReference: {fileID: 0}
    - target: {fileID: 2924534473735894398, guid: 1f88c7dff5447d54a81d22f780c19f1d,
        type: 3}
      propertyPath: m_LocalRotation.z
      value: -0
      objectReference: {fileID: 0}
    - target: {fileID: 2924534473735894398, guid: 1f88c7dff5447d54a81d22f780c19f1d,
        type: 3}
      propertyPath: m_LocalRotation.w
      value: 0.9595355
      objectReference: {fileID: 0}
    - target: {fileID: 2924534473735894398, guid: 1f88c7dff5447d54a81d22f780c19f1d,
        type: 3}
      propertyPath: m_RootOrder
      value: 1
      objectReference: {fileID: 0}
    - target: {fileID: 2924534473735894398, guid: 1f88c7dff5447d54a81d22f780c19f1d,
        type: 3}
      propertyPath: m_LocalEulerAnglesHint.x
      value: 32.71
      objectReference: {fileID: 0}
    - target: {fileID: 2924534473735894398, guid: 1f88c7dff5447d54a81d22f780c19f1d,
        type: 3}
      propertyPath: m_LocalEulerAnglesHint.y
      value: 0
      objectReference: {fileID: 0}
    - target: {fileID: 2924534473735894398, guid: 1f88c7dff5447d54a81d22f780c19f1d,
        type: 3}
      propertyPath: m_LocalEulerAnglesHint.z
      value: 0
      objectReference: {fileID: 0}
    - target: {fileID: 8781531750136867914, guid: 1f88c7dff5447d54a81d22f780c19f1d,
        type: 3}
      propertyPath: m_Cameras.Array.data[0]
      value: 
      objectReference: {fileID: 841149883}
    - target: {fileID: 8781531750136867914, guid: 1f88c7dff5447d54a81d22f780c19f1d,
        type: 3}
      propertyPath: m_StopNaN
      value: 1
      objectReference: {fileID: 0}
    - target: {fileID: 8781531750136867914, guid: 1f88c7dff5447d54a81d22f780c19f1d,
        type: 3}
      propertyPath: m_Antialiasing
      value: 2
      objectReference: {fileID: 0}
    - target: {fileID: 8781531750136867914, guid: 1f88c7dff5447d54a81d22f780c19f1d,
        type: 3}
      propertyPath: m_RenderPostProcessing
      value: 1
      objectReference: {fileID: 0}
    - target: {fileID: 8781531750136867914, guid: 1f88c7dff5447d54a81d22f780c19f1d,
        type: 3}
      propertyPath: m_Dithering
      value: 0
      objectReference: {fileID: 0}
    - target: {fileID: 8781531750136867914, guid: 1f88c7dff5447d54a81d22f780c19f1d,
        type: 3}
      propertyPath: m_RenderShadows
      value: 1
      objectReference: {fileID: 0}
    m_RemovedComponents: []
  m_SourcePrefab: {fileID: 100100000, guid: 1f88c7dff5447d54a81d22f780c19f1d, type: 3}
--- !u!1 &2087089188
GameObject:
  m_ObjectHideFlags: 1
  m_CorrespondingSourceObject: {fileID: 0}
  m_PrefabInstance: {fileID: 0}
  m_PrefabAsset: {fileID: 0}
  serializedVersion: 6
  m_Component:
  - component: {fileID: 2087089190}
  - component: {fileID: 2087089189}
  m_Layer: 0
  m_Name: StaticLightingSky
  m_TagString: Untagged
  m_Icon: {fileID: 0}
  m_NavMeshLayer: 0
  m_StaticEditorFlags: 0
  m_IsActive: 1
--- !u!114 &2087089189
MonoBehaviour:
  m_ObjectHideFlags: 1
  m_CorrespondingSourceObject: {fileID: 0}
  m_PrefabInstance: {fileID: 0}
  m_PrefabAsset: {fileID: 0}
  m_GameObject: {fileID: 2087089188}
  m_Enabled: 1
  m_EditorHideFlags: 0
  m_Script: {fileID: 11500000, guid: 441482e8936e35048a1dffac814e3ef8, type: 3}
  m_Name: 
  m_EditorClassIdentifier: 
--- !u!4 &2087089190
Transform:
  m_ObjectHideFlags: 1
  m_CorrespondingSourceObject: {fileID: 0}
  m_PrefabInstance: {fileID: 0}
  m_PrefabAsset: {fileID: 0}
  m_GameObject: {fileID: 2087089188}
  m_LocalRotation: {x: 0, y: 0, z: 0, w: 1}
  m_LocalPosition: {x: 0, y: 0, z: 0}
  m_LocalScale: {x: 1, y: 1, z: 1}
  m_Children: []
  m_Father: {fileID: 0}
  m_RootOrder: 2
  m_LocalEulerAnglesHint: {x: 0, y: 0, z: 0}
--- !u!1001 &311038940517675984
PrefabInstance:
  m_ObjectHideFlags: 0
  serializedVersion: 2
  m_Modification:
    m_TransformParent: {fileID: 0}
    m_Modifications:
    - target: {fileID: 3871656027975918805, guid: 87a614062d7187d4f8b7f1c01e60b490,
        type: 3}
      propertyPath: m_LocalPosition.x
      value: 0
      objectReference: {fileID: 0}
    - target: {fileID: 3871656027975918805, guid: 87a614062d7187d4f8b7f1c01e60b490,
        type: 3}
      propertyPath: m_LocalPosition.y
      value: 0
      objectReference: {fileID: 0}
    - target: {fileID: 3871656027975918805, guid: 87a614062d7187d4f8b7f1c01e60b490,
        type: 3}
      propertyPath: m_LocalPosition.z
      value: 0
      objectReference: {fileID: 0}
    - target: {fileID: 3871656027975918805, guid: 87a614062d7187d4f8b7f1c01e60b490,
        type: 3}
      propertyPath: m_LocalRotation.x
      value: 0
      objectReference: {fileID: 0}
    - target: {fileID: 3871656027975918805, guid: 87a614062d7187d4f8b7f1c01e60b490,
        type: 3}
      propertyPath: m_LocalRotation.y
      value: 0
      objectReference: {fileID: 0}
    - target: {fileID: 3871656027975918805, guid: 87a614062d7187d4f8b7f1c01e60b490,
        type: 3}
      propertyPath: m_LocalRotation.z
      value: 0
      objectReference: {fileID: 0}
    - target: {fileID: 3871656027975918805, guid: 87a614062d7187d4f8b7f1c01e60b490,
        type: 3}
      propertyPath: m_LocalRotation.w
      value: 1
      objectReference: {fileID: 0}
    - target: {fileID: 3871656027975918805, guid: 87a614062d7187d4f8b7f1c01e60b490,
        type: 3}
      propertyPath: m_RootOrder
      value: 3
      objectReference: {fileID: 0}
    - target: {fileID: 3871656027975918805, guid: 87a614062d7187d4f8b7f1c01e60b490,
        type: 3}
      propertyPath: m_LocalEulerAnglesHint.x
      value: 0
      objectReference: {fileID: 0}
    - target: {fileID: 3871656027975918805, guid: 87a614062d7187d4f8b7f1c01e60b490,
        type: 3}
      propertyPath: m_LocalEulerAnglesHint.y
      value: 0
      objectReference: {fileID: 0}
    - target: {fileID: 3871656027975918805, guid: 87a614062d7187d4f8b7f1c01e60b490,
        type: 3}
      propertyPath: m_LocalEulerAnglesHint.z
      value: 0
      objectReference: {fileID: 0}
    - target: {fileID: 8617415497001544098, guid: 87a614062d7187d4f8b7f1c01e60b490,
        type: 3}
      propertyPath: m_Name
      value: PREF_M_GameManager
      objectReference: {fileID: 0}
    m_RemovedComponents: []
  m_SourcePrefab: {fileID: 100100000, guid: 87a614062d7187d4f8b7f1c01e60b490, type: 3}
