%YAML 1.1
%TAG !u! tag:unity3d.com,2011:
--- !u!114 &11400000
MonoBehaviour:
  m_ObjectHideFlags: 0
  m_CorrespondingSourceObject: {fileID: 0}
  m_PrefabInstance: {fileID: 0}
  m_PrefabAsset: {fileID: 0}
  m_GameObject: {fileID: 0}
  m_Enabled: 1
  m_EditorHideFlags: 0
  m_Script: {fileID: 11500000, guid: 5d3bc9ebe167e5b418ef781ebf220311, type: 3}
  m_Name: SO_SE_I_C_6
  m_EditorClassIdentifier: 
  VFXPrefab:
    Path: 
  NextTargetTimeframes: 0
  PreviousTargetTimeframes: 0
  TargetTeam: 0
  DamageAmount: 20
  InterceptActionType: 0
