%YAML 1.1
%TAG !u! tag:unity3d.com,2011:
--- !u!114 &11400000
MonoBehaviour:
  m_ObjectHideFlags: 0
  m_CorrespondingSourceObject: {fileID: 0}
  m_PrefabInstance: {fileID: 0}
  m_PrefabAsset: {fileID: 0}
  m_GameObject: {fileID: 0}
  m_Enabled: 1
  m_EditorHideFlags: 0
  m_Script: {fileID: 11500000, guid: f0f8223739b84b72afa4ff18b7bfa7b4, type: 3}
  m_Name: SO_RP_EndGame
  m_EditorClassIdentifier: 
  PossibleRewards:
  - {fileID: 11400000, guid: 034ac9afd27120c42a02c2c0f2800af3, type: 2}
