%YAML 1.1
%TAG !u! tag:unity3d.com,2011:
--- !u!114 &11400000
MonoBehaviour:
  m_ObjectHideFlags: 0
  m_CorrespondingSourceObject: {fileID: 0}
  m_PrefabInstance: {fileID: 0}
  m_PrefabAsset: {fileID: 0}
  m_GameObject: {fileID: 0}
  m_Enabled: 1
  m_EditorHideFlags: 0
  m_Script: {fileID: 11500000, guid: f0f8223739b84b72afa4ff18b7bfa7b4, type: 3}
  m_Name: SO_RP_T1_TR
  m_EditorClassIdentifier: 
  PossibleRewards:
  - {fileID: 11400000, guid: 8eb8d0c0b9db1eb43980e21936f31a1e, type: 2}
  - {fileID: 11400000, guid: 8eb8d0c0b9db1eb43980e21936f31a1e, type: 2}
  - {fileID: 11400000, guid: 8eb8d0c0b9db1eb43980e21936f31a1e, type: 2}
  - {fileID: 11400000, guid: 3980cdc17a3f6454c96b04dee8b05f3b, type: 2}
  - {fileID: 11400000, guid: 3980cdc17a3f6454c96b04dee8b05f3b, type: 2}
  - {fileID: 11400000, guid: 3980cdc17a3f6454c96b04dee8b05f3b, type: 2}
  - {fileID: 11400000, guid: 2fe0dff4b47030b4681437de245ef301, type: 2}
  - {fileID: 11400000, guid: 2fe0dff4b47030b4681437de245ef301, type: 2}
  - {fileID: 11400000, guid: 2fe0dff4b47030b4681437de245ef301, type: 2}
  - {fileID: 11400000, guid: 94da732a77aed9740a50e8d8d487621b, type: 2}
  - {fileID: 11400000, guid: 94da732a77aed9740a50e8d8d487621b, type: 2}
  - {fileID: 11400000, guid: 94da732a77aed9740a50e8d8d487621b, type: 2}
  - {fileID: 11400000, guid: 975189f4a047723479155821df396db4, type: 2}
  - {fileID: 11400000, guid: 975189f4a047723479155821df396db4, type: 2}
  - {fileID: 11400000, guid: 975189f4a047723479155821df396db4, type: 2}
  - {fileID: 11400000, guid: ec7162f67520a5f4ebb41fa034854811, type: 2}
  - {fileID: 11400000, guid: ec7162f67520a5f4ebb41fa034854811, type: 2}
  - {fileID: 11400000, guid: ec7162f67520a5f4ebb41fa034854811, type: 2}
  - {fileID: 11400000, guid: 0ca97da8713396d4db738c3c77a9308c, type: 2}
  - {fileID: 11400000, guid: 0ca97da8713396d4db738c3c77a9308c, type: 2}
  - {fileID: 11400000, guid: 0ca97da8713396d4db738c3c77a9308c, type: 2}
  - {fileID: 11400000, guid: c66ecdcc864f7384eba6e9d9129c083c, type: 2}
  - {fileID: 11400000, guid: c66ecdcc864f7384eba6e9d9129c083c, type: 2}
  - {fileID: 11400000, guid: c66ecdcc864f7384eba6e9d9129c083c, type: 2}
  - {fileID: 11400000, guid: bb33a212d80e6f249ae3a92b8d94d45d, type: 2}
  - {fileID: 11400000, guid: bb33a212d80e6f249ae3a92b8d94d45d, type: 2}
  - {fileID: 11400000, guid: bb33a212d80e6f249ae3a92b8d94d45d, type: 2}
  - {fileID: 11400000, guid: e8ac187a5932d894999e2749eaf0c004, type: 2}
  - {fileID: 11400000, guid: e8ac187a5932d894999e2749eaf0c004, type: 2}
  - {fileID: 11400000, guid: e8ac187a5932d894999e2749eaf0c004, type: 2}
  - {fileID: 11400000, guid: c0531aa5fd699494a917231d9a1aaa7d, type: 2}
  - {fileID: 11400000, guid: c0531aa5fd699494a917231d9a1aaa7d, type: 2}
  - {fileID: 11400000, guid: c0531aa5fd699494a917231d9a1aaa7d, type: 2}
  - {fileID: 11400000, guid: 0c53895cd4a11124d856f7fa24c1e8ac, type: 2}
  - {fileID: 11400000, guid: 0c53895cd4a11124d856f7fa24c1e8ac, type: 2}
  - {fileID: 11400000, guid: 0c53895cd4a11124d856f7fa24c1e8ac, type: 2}
  - {fileID: 11400000, guid: 3c2488e8f3ad5f7429dd18ad7ea996d0, type: 2}
  - {fileID: 11400000, guid: 3c2488e8f3ad5f7429dd18ad7ea996d0, type: 2}
  - {fileID: 11400000, guid: 3c2488e8f3ad5f7429dd18ad7ea996d0, type: 2}
  - {fileID: 11400000, guid: aca67128944ed234d8d09da645e0adec, type: 2}
  - {fileID: 11400000, guid: aca67128944ed234d8d09da645e0adec, type: 2}
  - {fileID: 11400000, guid: aca67128944ed234d8d09da645e0adec, type: 2}
  - {fileID: 11400000, guid: 2a626589f393a6e46b292eb98be654b7, type: 2}
  - {fileID: 11400000, guid: 2a626589f393a6e46b292eb98be654b7, type: 2}
  - {fileID: 11400000, guid: 2a626589f393a6e46b292eb98be654b7, type: 2}
  - {fileID: 11400000, guid: 938e39aa7a12ba14b9ccb1c6fee04c81, type: 2}
  - {fileID: 11400000, guid: 938e39aa7a12ba14b9ccb1c6fee04c81, type: 2}
  - {fileID: 11400000, guid: 938e39aa7a12ba14b9ccb1c6fee04c81, type: 2}
  - {fileID: 11400000, guid: defaa8c07ee3094408a32a7ea6069804, type: 2}
  - {fileID: 11400000, guid: defaa8c07ee3094408a32a7ea6069804, type: 2}
  - {fileID: 11400000, guid: defaa8c07ee3094408a32a7ea6069804, type: 2}
  - {fileID: 11400000, guid: a40e97303ed6ab94b9fb57d456b3bc23, type: 2}
  - {fileID: 11400000, guid: a40e97303ed6ab94b9fb57d456b3bc23, type: 2}
  - {fileID: 11400000, guid: a40e97303ed6ab94b9fb57d456b3bc23, type: 2}
  - {fileID: 11400000, guid: ffaada8ff5136114e8320d50fd1889f5, type: 2}
  - {fileID: 11400000, guid: ffaada8ff5136114e8320d50fd1889f5, type: 2}
  - {fileID: 11400000, guid: ffaada8ff5136114e8320d50fd1889f5, type: 2}
  - {fileID: 11400000, guid: 647c73c83619a9048a92f21034a2028f, type: 2}
  - {fileID: 11400000, guid: 647c73c83619a9048a92f21034a2028f, type: 2}
  - {fileID: 11400000, guid: 647c73c83619a9048a92f21034a2028f, type: 2}
  - {fileID: 11400000, guid: eeeb8ee5129c4b440bdea46a3b2c7bba, type: 2}
  - {fileID: 11400000, guid: eeeb8ee5129c4b440bdea46a3b2c7bba, type: 2}
  - {fileID: 11400000, guid: eeeb8ee5129c4b440bdea46a3b2c7bba, type: 2}
  - {fileID: 11400000, guid: 3a2e1a3f7624abf4c8cddab802597a9e, type: 2}
  - {fileID: 11400000, guid: 3a2e1a3f7624abf4c8cddab802597a9e, type: 2}
  - {fileID: 11400000, guid: 3a2e1a3f7624abf4c8cddab802597a9e, type: 2}
  - {fileID: 11400000, guid: 252a795fe0095064d96017291680a9a2, type: 2}
  - {fileID: 11400000, guid: 252a795fe0095064d96017291680a9a2, type: 2}
  - {fileID: 11400000, guid: 252a795fe0095064d96017291680a9a2, type: 2}
  - {fileID: 11400000, guid: e7163f1ebc12a414a93109523799217e, type: 2}
  - {fileID: 11400000, guid: e7163f1ebc12a414a93109523799217e, type: 2}
  - {fileID: 11400000, guid: e7163f1ebc12a414a93109523799217e, type: 2}
  - {fileID: 11400000, guid: 87021abeb5feed84180fc5d1c37a76d8, type: 2}
  - {fileID: 11400000, guid: 87021abeb5feed84180fc5d1c37a76d8, type: 2}
  - {fileID: 11400000, guid: 392b9e0bbc55fd242bc14bc8683dc1d5, type: 2}
  - {fileID: 11400000, guid: 392b9e0bbc55fd242bc14bc8683dc1d5, type: 2}
  - {fileID: 11400000, guid: d9ea3f66d6fffd3419c0aac9a0fd5fb9, type: 2}
  - {fileID: 11400000, guid: d9ea3f66d6fffd3419c0aac9a0fd5fb9, type: 2}
  - {fileID: 11400000, guid: 3e5dc13badea1714aa72aee731857284, type: 2}
  - {fileID: 11400000, guid: 3e5dc13badea1714aa72aee731857284, type: 2}
  - {fileID: 11400000, guid: 21cb8082e5f0adb47b60bdab6d63b4ca, type: 2}
  - {fileID: 11400000, guid: 21cb8082e5f0adb47b60bdab6d63b4ca, type: 2}
  - {fileID: 11400000, guid: 3d9b5fb35f28919429cc48b6c3064745, type: 2}
  - {fileID: 11400000, guid: 3d9b5fb35f28919429cc48b6c3064745, type: 2}
  - {fileID: 11400000, guid: 3848519ff30b7774d980335e06c7539d, type: 2}
  - {fileID: 11400000, guid: 3848519ff30b7774d980335e06c7539d, type: 2}
  - {fileID: 11400000, guid: da4346ea05dc70b46a6a7b67473b86dc, type: 2}
  - {fileID: 11400000, guid: da4346ea05dc70b46a6a7b67473b86dc, type: 2}
  - {fileID: 11400000, guid: 802c4af535c69cb41ac36cf25842a52c, type: 2}
  - {fileID: 11400000, guid: 802c4af535c69cb41ac36cf25842a52c, type: 2}
