%YAML 1.1
%TAG !u! tag:unity3d.com,2011:
--- !u!1 &4396615355480368076
GameObject:
  m_ObjectHideFlags: 0
  m_CorrespondingSourceObject: {fileID: 0}
  m_PrefabInstance: {fileID: 0}
  m_PrefabAsset: {fileID: 0}
  serializedVersion: 6
  m_Component:
  - component: {fileID: 3025711195458048229}
  - component: {fileID: 306340906269091113}
  m_Layer: 10
  m_Name: PREF_M_ProgressionManager
  m_TagString: Untagged
  m_Icon: {fileID: 0}
  m_NavMeshLayer: 0
  m_StaticEditorFlags: 0
  m_IsActive: 1
--- !u!4 &3025711195458048229
Transform:
  m_ObjectHideFlags: 0
  m_CorrespondingSourceObject: {fileID: 0}
  m_PrefabInstance: {fileID: 0}
  m_PrefabAsset: {fileID: 0}
  m_GameObject: {fileID: 4396615355480368076}
  m_LocalRotation: {x: 0, y: 0, z: 0, w: 1}
  m_LocalPosition: {x: 0, y: 0, z: 0}
  m_LocalScale: {x: 1, y: 1, z: 1}
  m_Children: []
  m_Father: {fileID: 0}
  m_RootOrder: 0
  m_LocalEulerAnglesHint: {x: 0, y: 0, z: 0}
--- !u!114 &306340906269091113
MonoBehaviour:
  m_ObjectHideFlags: 0
  m_CorrespondingSourceObject: {fileID: 0}
  m_PrefabInstance: {fileID: 0}
  m_PrefabAsset: {fileID: 0}
  m_GameObject: {fileID: 4396615355480368076}
  m_Enabled: 1
  m_EditorHideFlags: 0
  m_Script: {fileID: 11500000, guid: 838507b53eece044f9d563d5624e920b, type: 3}
  m_Name: 
  m_EditorClassIdentifier: 
  m_EnemyGroupPool:
  - {fileID: 11400000, guid: aaf3e969ef3eda344bc6f9fa55fb3455, type: 2}
  - {fileID: 11400000, guid: 775cc7cdcc3b7bb488acbe4b4d7a5fe6, type: 2}
  - {fileID: 11400000, guid: d75b1deeef31116419eab1dbd90f47c0, type: 2}
  - {fileID: 11400000, guid: eeca5e772258d04498ded2c0cb693527, type: 2}
  - {fileID: 11400000, guid: bcdfbe25aa20fd1459d9a1cc684306a8, type: 2}
  - {fileID: 11400000, guid: 2009054fea46334429be381f9c058d3e, type: 2}
  - {fileID: 11400000, guid: f4a7e15c2f8f734469ae450a117d8867, type: 2}
  - {fileID: 11400000, guid: 477dd5482072b6d48a442d4020f0afc1, type: 2}
  - {fileID: 11400000, guid: f5d09c0915d0c904b885a72175d7b8f1, type: 2}
  - {fileID: 11400000, guid: af925d836768f684598a040e8fc1f519, type: 2}
  - {fileID: 11400000, guid: d4b4416a409d5254eb17a74603ffdc89, type: 2}
  - {fileID: 11400000, guid: d2f36d3397865cd4f9cec73232e6d63f, type: 2}
  m_MixedGroupPool:
  - {fileID: 11400000, guid: 4398342cc88b0634691f0af935041905, type: 2}
  - {fileID: 11400000, guid: b575d4f08bd64da448a38f6e11c9f95f, type: 2}
  - {fileID: 11400000, guid: 288b51d47838dd840927092211feeecd, type: 2}
  - {fileID: 11400000, guid: 37c48aa1b8ca8e14a9074c0747222931, type: 2}
  - {fileID: 11400000, guid: eeca15429738fd344a62554fcb2a946c, type: 2}
  - {fileID: 11400000, guid: 0ddf53b71ee75574e8aa491c3f7a3384, type: 2}
  m_TierEvents:
  - {fileID: 11400000, guid: 139180bcdb46ba643aed5c6403ca06e5, type: 2}
  - {fileID: 11400000, guid: 3058b2a02a5b89f4087ec59b2bf62ea3, type: 2}
  - {fileID: 11400000, guid: ed106d17b38b31c43aa287a1a037632c, type: 2}
  m_MaxTier: 3
  m_MaxTierEncounters: 6
  m_EnemyEncountersPerTier: 1
  m_EndGameRewardPool: {fileID: 11400000, guid: 32df6cd141694934d82457dacb2ea32b,
    type: 2}
