%YAML 1.1
%TAG !u! tag:unity3d.com,2011:
--- !u!1 &5738093171538060037
GameObject:
  m_ObjectHideFlags: 0
  m_CorrespondingSourceObject: {fileID: 0}
  m_PrefabInstance: {fileID: 0}
  m_PrefabAsset: {fileID: 0}
  serializedVersion: 6
  m_Component:
  - component: {fileID: 8746455079319879202}
  - component: {fileID: 1103120023096348150}
  m_Layer: 10
  m_Name: PREF_M_RoundManager
  m_TagString: Untagged
  m_Icon: {fileID: 0}
  m_NavMeshLayer: 0
  m_StaticEditorFlags: 0
  m_IsActive: 1
--- !u!4 &8746455079319879202
Transform:
  m_ObjectHideFlags: 0
  m_CorrespondingSourceObject: {fileID: 0}
  m_PrefabInstance: {fileID: 0}
  m_PrefabAsset: {fileID: 0}
  m_GameObject: {fileID: 5738093171538060037}
  m_LocalRotation: {x: 0, y: 0, z: 0, w: 1}
  m_LocalPosition: {x: 0, y: 0, z: 0}
  m_LocalScale: {x: 1, y: 1, z: 1}
  m_Children: []
  m_Father: {fileID: 0}
  m_RootOrder: 0
  m_LocalEulerAnglesHint: {x: 0, y: 0, z: 0}
--- !u!114 &1103120023096348150
MonoBehaviour:
  m_ObjectHideFlags: 0
  m_CorrespondingSourceObject: {fileID: 0}
  m_PrefabInstance: {fileID: 0}
  m_PrefabAsset: {fileID: 0}
  m_GameObject: {fileID: 5738093171538060037}
  m_Enabled: 1
  m_EditorHideFlags: 0
  m_Script: {fileID: 11500000, guid: c811d75bd7f5e4f41a8c24bb5a0d87f4, type: 3}
  m_Name: 
  m_EditorClassIdentifier: 
  m_BoardPrefab: {fileID: 5212698768415758757, guid: 20b4c0d13838ff54b90a8db398fa2c3b,
    type: 3}
  m_TimelinePrefab: {fileID: 2862826234759149467, guid: 57f8c4854377151499ae7d68d6d438d4,
    type: 3}
  m_PlayerPrefab: {fileID: 131415505118347990, guid: e498c19c2e332e542884aa0714858d1d,
    type: 3}
  m_EnemyTeamPrefab: {fileID: 8912552038264084569, guid: f5a379f9678f4c143a5b10825f98d110,
    type: 3}
  m_SelectionPrefab: {fileID: 7995780352908145838, guid: 8ffbe958a8e6c8f4c882563275bfcc7c,
    type: 3}
